1.000E-03	8.458E+00	4.417E-03	9.403E+03	0.000E+00	0.000E+00	9.412E+03	9.403E+03
2.000E-03	7.481E+00	1.285E-02	2.080E+03	0.000E+00	0.000E+00	2.088E+03	2.080E+03
3.000E-03	6.481E+00	2.123E-02	7.715E+02	0.000E+00	0.000E+00	7.780E+02	7.715E+02
4.000E-03	5.637E+00	2.874E-02	3.730E+02	0.000E+00	0.000E+00	3.787E+02	3.730E+02
5.000E-03	4.945E+00	3.515E-02	6.344E+02	0.000E+00	0.000E+00	6.393E+02	6.344E+02
6.000E-03	4.368E+00	4.071E-02	6.330E+02	0.000E+00	0.000E+00	6.374E+02	6.330E+02
7.000E-03	3.881E+00	4.569E-02	4.241E+02	0.000E+00	0.000E+00	4.280E+02	4.241E+02
8.000E-03	3.464E+00	5.027E-02	2.998E+02	0.000E+00	0.000E+00	3.033E+02	2.998E+02
9.000E-03	3.112E+00	5.452E-02	2.196E+02	0.000E+00	0.000E+00	2.227E+02	2.196E+02
1.000E-02	2.815E+00	5.848E-02	1.662E+02	0.000E+00	0.000E+00	1.691E+02	1.662E+02
1.100E-02	2.563E+00	6.218E-02	1.284E+02	0.000E+00	0.000E+00	1.310E+02	1.285E+02
1.200E-02	2.347E+00	6.561E-02	1.015E+02	0.000E+00	0.000E+00	1.039E+02	1.016E+02
1.300E-02	2.160E+00	6.879E-02	8.173E+01	0.000E+00	0.000E+00	8.396E+01	8.180E+01
1.400E-02	1.996E+00	7.172E-02	6.689E+01	0.000E+00	0.000E+00	6.896E+01	6.696E+01
1.500E-02	1.852E+00	7.440E-02	5.550E+01	0.000E+00	0.000E+00	5.743E+01	5.558E+01
1.600E-02	1.724E+00	7.685E-02	4.645E+01	0.000E+00	0.000E+00	4.825E+01	4.653E+01
1.700E-02	1.609E+00	7.910E-02	3.930E+01	0.000E+00	0.000E+00	4.099E+01	3.938E+01
1.800E-02	1.505E+00	8.117E-02	3.357E+01	0.000E+00	0.000E+00	3.515E+01	3.365E+01
1.900E-02	1.410E+00	8.308E-02	2.892E+01	0.000E+00	0.000E+00	3.041E+01	2.900E+01
2.000E-02	1.322E+00	8.486E-02	2.510E+01	0.000E+00	0.000E+00	2.651E+01	2.519E+01
2.100E-02	1.242E+00	8.651E-02	2.190E+01	0.000E+00	0.000E+00	2.323E+01	2.199E+01
2.200E-02	1.168E+00	8.805E-02	1.923E+01	0.000E+00	0.000E+00	2.049E+01	1.932E+01
2.300E-02	1.101E+00	8.949E-02	1.698E+01	0.000E+00	0.000E+00	1.817E+01	1.707E+01
2.400E-02	1.038E+00	9.084E-02	1.508E+01	0.000E+00	0.000E+00	1.621E+01	1.517E+01
2.500E-02	9.808E-01	9.210E-02	1.345E+01	0.000E+00	0.000E+00	1.452E+01	1.354E+01
2.600E-02	9.280E-01	9.328E-02	1.205E+01	0.000E+00	0.000E+00	1.307E+01	1.215E+01
2.700E-02	8.793E-01	9.438E-02	1.085E+01	0.000E+00	0.000E+00	1.182E+01	1.094E+01
2.800E-02	8.344E-01	9.541E-02	9.797E+00	0.000E+00	0.000E+00	1.073E+01	9.892E+00
2.900E-02	7.929E-01	9.638E-02	8.881E+00	0.000E+00	0.000E+00	9.770E+00	8.977E+00
3.000E-02	7.545E-01	9.729E-02	8.078E+00	0.000E+00	0.000E+00	8.929E+00	8.175E+00
3.100E-02	7.190E-01	9.814E-02	7.363E+00	0.000E+00	0.000E+00	8.181E+00	7.462E+00
3.200E-02	6.861E-01	9.894E-02	6.732E+00	0.000E+00	0.000E+00	7.517E+00	6.831E+00
3.300E-02	6.555E-01	9.969E-02	6.172E+00	0.000E+00	0.000E+00	6.927E+00	6.272E+00
3.400E-02	6.270E-01	1.004E-01	5.673E+00	0.000E+00	0.000E+00	6.401E+00	5.774E+00
3.500E-02	6.005E-01	1.011E-01	3.139E+01	0.000E+00	0.000E+00	3.209E+01	3.149E+01
3.600E-02	5.757E-01	1.017E-01	2.915E+01	0.000E+00	0.000E+00	2.982E+01	2.925E+01
3.700E-02	5.525E-01	1.023E-01	2.712E+01	0.000E+00	0.000E+00	2.778E+01	2.723E+01
3.800E-02	5.308E-01	1.028E-01	2.529E+01	0.000E+00	0.000E+00	2.592E+01	2.539E+01
3.900E-02	5.104E-01	1.034E-01	2.363E+01	0.000E+00	0.000E+00	2.424E+01	2.373E+01
4.000E-02	4.913E-01	1.038E-01	2.211E+01	0.000E+00	0.000E+00	2.270E+01	2.221E+01
4.100E-02	4.733E-01	1.043E-01	2.072E+01	0.000E+00	0.000E+00	2.130E+01	2.083E+01
4.200E-02	4.563E-01	1.047E-01	1.946E+01	0.000E+00	0.000E+00	2.002E+01	1.956E+01
4.300E-02	4.403E-01	1.051E-01	1.829E+01	0.000E+00	0.000E+00	1.884E+01	1.840E+01
4.400E-02	4.252E-01	1.055E-01	1.722E+01	0.000E+00	0.000E+00	1.775E+01	1.733E+01
4.500E-02	4.109E-01	1.059E-01	1.624E+01	0.000E+00	0.000E+00	1.675E+01	1.634E+01
4.600E-02	3.973E-01	1.062E-01	1.532E+01	0.000E+00	0.000E+00	1.582E+01	1.543E+01
4.700E-02	3.843E-01	1.065E-01	1.447E+01	0.000E+00	0.000E+00	1.496E+01	1.458E+01
4.800E-02	3.721E-01	1.068E-01	1.369E+01	0.000E+00	0.000E+00	1.416E+01	1.379E+01
4.900E-02	3.604E-01	1.071E-01	1.295E+01	0.000E+00	0.000E+00	1.342E+01	1.306E+01
5.000E-02	3.492E-01	1.073E-01	1.227E+01	0.000E+00	0.000E+00	1.273E+01	1.238E+01
5.100E-02	3.385E-01	1.076E-01	1.163E+01	0.000E+00	0.000E+00	1.208E+01	1.174E+01
5.200E-02	3.284E-01	1.078E-01	1.104E+01	0.000E+00	0.000E+00	1.147E+01	1.114E+01
5.300E-02	3.186E-01	1.080E-01	1.048E+01	0.000E+00	0.000E+00	1.091E+01	1.059E+01
5.400E-02	3.093E-01	1.082E-01	9.957E+00	0.000E+00	0.000E+00	1.037E+01	1.007E+01
5.500E-02	3.004E-01	1.084E-01	9.469E+00	0.000E+00	0.000E+00	9.878E+00	9.578E+00
5.600E-02	2.918E-01	1.085E-01	9.013E+00	0.000E+00	0.000E+00	9.413E+00	9.121E+00
5.700E-02	2.837E-01	1.087E-01	8.585E+00	0.000E+00	0.000E+00	8.977E+00	8.693E+00
5.800E-02	2.758E-01	1.088E-01	8.183E+00	0.000E+00	0.000E+00	8.568E+00	8.292E+00
5.900E-02	2.682E-01	1.090E-01	7.807E+00	0.000E+00	0.000E+00	8.184E+00	7.916E+00
6.000E-02	2.610E-01	1.091E-01	7.454E+00	0.000E+00	0.000E+00	7.824E+00	7.563E+00
6.100E-02	2.540E-01	1.092E-01	7.122E+00	0.000E+00	0.000E+00	7.485E+00	7.231E+00
6.200E-02	2.473E-01	1.093E-01	6.810E+00	0.000E+00	0.000E+00	7.166E+00	6.919E+00
6.300E-02	2.409E-01	1.094E-01	6.516E+00	0.000E+00	0.000E+00	6.866E+00	6.626E+00
6.400E-02	2.347E-01	1.094E-01	6.239E+00	0.000E+00	0.000E+00	6.584E+00	6.349E+00
6.500E-02	2.287E-01	1.095E-01	5.978E+00	0.000E+00	0.000E+00	6.317E+00	6.088E+00
6.600E-02	2.230E-01	1.096E-01	5.732E+00	0.000E+00	0.000E+00	6.064E+00	5.841E+00
6.700E-02	2.174E-01	1.096E-01	5.499E+00	0.000E+00	0.000E+00	5.826E+00	5.609E+00
6.800E-02	2.121E-01	1.097E-01	5.279E+00	0.000E+00	0.000E+00	5.600E+00	5.388E+00
6.900E-02	2.069E-01	1.097E-01	5.070E+00	0.000E+00	0.000E+00	5.387E+00	5.180E+00
7.000E-02	2.020E-01	1.097E-01	4.872E+00	0.000E+00	0.000E+00	5.184E+00	4.982E+00
7.100E-02	1.972E-01	1.097E-01	4.685E+00	0.000E+00	0.000E+00	4.992E+00	4.795E+00
7.200E-02	1.926E-01	1.098E-01	4.507E+00	0.000E+00	0.000E+00	4.809E+00	4.617E+00
7.300E-02	1.881E-01	1.098E-01	4.338E+00	0.000E+00	0.000E+00	4.636E+00	4.448E+00
7.400E-02	1.838E-01	1.098E-01	4.177E+00	0.000E+00	0.000E+00	4.471E+00	4.287E+00
7.500E-02	1.796E-01	1.098E-01	4.025E+00	0.000E+00	0.000E+00	4.314E+00	4.134E+00
7.600E-02	1.756E-01	1.097E-01	3.879E+00	0.000E+00	0.000E+00	4.165E+00	3.989E+00
7.700E-02	1.717E-01	1.097E-01	3.741E+00	0.000E+00	0.000E+00	4.022E+00	3.850E+00
7.800E-02	1.679E-01	1.097E-01	3.609E+00	0.000E+00	0.000E+00	3.886E+00	3.718E+00
7.900E-02	1.643E-01	1.097E-01	3.483E+00	0.000E+00	0.000E+00	3.757E+00	3.592E+00
8.000E-02	1.608E-01	1.096E-01	3.363E+00	0.000E+00	0.000E+00	3.633E+00	3.472E+00
8.100E-02	1.574E-01	1.096E-01	3.248E+00	0.000E+00	0.000E+00	3.515E+00	3.358E+00
8.200E-02	1.541E-01	1.095E-01	3.138E+00	0.000E+00	0.000E+00	3.402E+00	3.248E+00
8.300E-02	1.508E-01	1.095E-01	3.034E+00	0.000E+00	0.000E+00	3.294E+00	3.143E+00
8.400E-02	1.477E-01	1.094E-01	2.933E+00	0.000E+00	0.000E+00	3.191E+00	3.043E+00
8.500E-02	1.447E-01	1.094E-01	2.838E+00	0.000E+00	0.000E+00	3.092E+00	2.947E+00
8.600E-02	1.418E-01	1.093E-01	2.746E+00	0.000E+00	0.000E+00	2.997E+00	2.855E+00
8.700E-02	1.390E-01	1.092E-01	2.658E+00	0.000E+00	0.000E+00	2.906E+00	2.767E+00
8.800E-02	1.362E-01	1.092E-01	2.574E+00	0.000E+00	0.000E+00	2.819E+00	2.683E+00
8.900E-02	1.336E-01	1.091E-01	2.493E+00	0.000E+00	0.000E+00	2.736E+00	2.602E+00
9.000E-02	1.310E-01	1.090E-01	2.416E+00	0.000E+00	0.000E+00	2.656E+00	2.525E+00
9.100E-02	1.285E-01	1.089E-01	2.342E+00	0.000E+00	0.000E+00	2.579E+00	2.451E+00
9.200E-02	1.261E-01	1.089E-01	2.271E+00	0.000E+00	0.000E+00	2.506E+00	2.380E+00
9.300E-02	1.237E-01	1.088E-01	2.202E+00	0.000E+00	0.000E+00	2.435E+00	2.311E+00
9.400E-02	1.214E-01	1.087E-01	2.137E+00	0.000E+00	0.000E+00	2.367E+00	2.246E+00
9.500E-02	1.192E-01	1.086E-01	2.074E+00	0.000E+00	0.000E+00	2.302E+00	2.182E+00
9.600E-02	1.170E-01	1.085E-01	2.013E+00	0.000E+00	0.000E+00	2.239E+00	2.122E+00
9.700E-02	1.149E-01	1.084E-01	1.955E+00	0.000E+00	0.000E+00	2.178E+00	2.064E+00
9.800E-02	1.128E-01	1.083E-01	1.899E+00	0.000E+00	0.000E+00	2.120E+00	2.007E+00
9.900E-02	1.108E-01	1.082E-01	1.845E+00	0.000E+00	0.000E+00	2.064E+00	1.954E+00
1.000E-01	1.089E-01	1.081E-01	1.793E+00	0.000E+00	0.000E+00	2.010E+00	1.902E+00
1.010E-01	1.070E-01	1.080E-01	1.744E+00	0.000E+00	0.000E+00	1.959E+00	1.852E+00
1.020E-01	1.052E-01	1.079E-01	1.696E+00	0.000E+00	0.000E+00	1.909E+00	1.803E+00
1.030E-01	1.034E-01	1.078E-01	1.649E+00	0.000E+00	0.000E+00	1.860E+00	1.757E+00
1.040E-01	1.016E-01	1.077E-01	1.605E+00	0.000E+00	0.000E+00	1.814E+00	1.712E+00
1.050E-01	9.993E-02	1.076E-01	1.562E+00	0.000E+00	0.000E+00	1.769E+00	1.669E+00
1.060E-01	9.827E-02	1.075E-01	1.520E+00	0.000E+00	0.000E+00	1.726E+00	1.628E+00
1.070E-01	9.666E-02	1.074E-01	1.480E+00	0.000E+00	0.000E+00	1.684E+00	1.587E+00
1.080E-01	9.509E-02	1.072E-01	1.442E+00	0.000E+00	0.000E+00	1.644E+00	1.549E+00
1.090E-01	9.355E-02	1.071E-01	1.404E+00	0.000E+00	0.000E+00	1.605E+00	1.511E+00
1.100E-01	9.206E-02	1.070E-01	1.368E+00	0.000E+00	0.000E+00	1.567E+00	1.475E+00
1.110E-01	9.060E-02	1.069E-01	1.333E+00	0.000E+00	0.000E+00	1.531E+00	1.440E+00
1.120E-01	8.917E-02	1.068E-01	1.300E+00	0.000E+00	0.000E+00	1.496E+00	1.407E+00
1.130E-01	8.778E-02	1.067E-01	1.267E+00	0.000E+00	0.000E+00	1.462E+00	1.374E+00
1.140E-01	8.643E-02	1.065E-01	1.236E+00	0.000E+00	0.000E+00	1.429E+00	1.343E+00
1.150E-01	8.510E-02	1.064E-01	1.206E+00	0.000E+00	0.000E+00	1.397E+00	1.312E+00
1.160E-01	8.381E-02	1.063E-01	1.176E+00	0.000E+00	0.000E+00	1.366E+00	1.283E+00
1.170E-01	8.254E-02	1.062E-01	1.148E+00	0.000E+00	0.000E+00	1.337E+00	1.254E+00
1.180E-01	8.131E-02	1.061E-01	1.120E+00	0.000E+00	0.000E+00	1.308E+00	1.227E+00
1.190E-01	8.010E-02	1.059E-01	1.094E+00	0.000E+00	0.000E+00	1.280E+00	1.200E+00
1.200E-01	7.892E-02	1.058E-01	1.068E+00	0.000E+00	0.000E+00	1.253E+00	1.174E+00
1.210E-01	7.777E-02	1.057E-01	1.043E+00	0.000E+00	0.000E+00	1.227E+00	1.149E+00
1.220E-01	7.664E-02	1.056E-01	1.019E+00	0.000E+00	0.000E+00	1.201E+00	1.125E+00
1.230E-01	7.554E-02	1.054E-01	9.955E-01	0.000E+00	0.000E+00	1.176E+00	1.101E+00
1.240E-01	7.446E-02	1.053E-01	9.728E-01	0.000E+00	0.000E+00	1.153E+00	1.078E+00
1.250E-01	7.340E-02	1.052E-01	9.508E-01	0.000E+00	0.000E+00	1.129E+00	1.056E+00
1.260E-01	7.237E-02	1.051E-01	9.294E-01	0.000E+00	0.000E+00	1.107E+00	1.034E+00
1.270E-01	7.136E-02	1.049E-01	9.087E-01	0.000E+00	0.000E+00	1.085E+00	1.014E+00
1.280E-01	7.037E-02	1.048E-01	8.886E-01	0.000E+00	0.000E+00	1.064E+00	9.934E-01
1.290E-01	6.940E-02	1.047E-01	8.691E-01	0.000E+00	0.000E+00	1.043E+00	9.738E-01
1.300E-01	6.845E-02	1.045E-01	8.502E-01	0.000E+00	0.000E+00	1.023E+00	9.547E-01
1.310E-01	6.753E-02	1.044E-01	8.318E-01	0.000E+00	0.000E+00	1.004E+00	9.362E-01
1.320E-01	6.662E-02	1.043E-01	8.139E-01	0.000E+00	0.000E+00	9.848E-01	9.182E-01
1.330E-01	6.572E-02	1.042E-01	7.966E-01	0.000E+00	0.000E+00	9.665E-01	9.007E-01
1.340E-01	6.485E-02	1.040E-01	7.797E-01	0.000E+00	0.000E+00	9.486E-01	8.838E-01
1.350E-01	6.400E-02	1.039E-01	7.634E-01	0.000E+00	0.000E+00	9.313E-01	8.673E-01
1.360E-01	6.316E-02	1.038E-01	7.475E-01	0.000E+00	0.000E+00	9.144E-01	8.512E-01
1.370E-01	6.234E-02	1.036E-01	7.320E-01	0.000E+00	0.000E+00	8.980E-01	8.356E-01
1.380E-01	6.153E-02	1.035E-01	7.170E-01	0.000E+00	0.000E+00	8.820E-01	8.205E-01
1.390E-01	6.074E-02	1.034E-01	7.023E-01	0.000E+00	0.000E+00	8.664E-01	8.057E-01
1.400E-01	5.997E-02	1.032E-01	6.881E-01	0.000E+00	0.000E+00	8.513E-01	7.914E-01
1.410E-01	5.921E-02	1.031E-01	6.743E-01	0.000E+00	0.000E+00	8.366E-01	7.774E-01
1.420E-01	5.846E-02	1.030E-01	6.608E-01	0.000E+00	0.000E+00	8.222E-01	7.638E-01
1.430E-01	5.773E-02	1.028E-01	6.477E-01	0.000E+00	0.000E+00	8.083E-01	7.505E-01
1.440E-01	5.701E-02	1.027E-01	6.349E-01	0.000E+00	0.000E+00	7.947E-01	7.377E-01
1.450E-01	5.631E-02	1.026E-01	6.225E-01	0.000E+00	0.000E+00	7.814E-01	7.251E-01
1.460E-01	5.562E-02	1.024E-01	6.104E-01	0.000E+00	0.000E+00	7.685E-01	7.129E-01
1.470E-01	5.494E-02	1.023E-01	5.987E-01	0.000E+00	0.000E+00	7.559E-01	7.010E-01
1.480E-01	5.427E-02	1.022E-01	5.872E-01	0.000E+00	0.000E+00	7.436E-01	6.894E-01
1.490E-01	5.362E-02	1.021E-01	5.760E-01	0.000E+00	0.000E+00	7.317E-01	6.781E-01
1.500E-01	5.298E-02	1.019E-01	5.651E-01	0.000E+00	0.000E+00	7.200E-01	6.670E-01
1.510E-01	5.235E-02	1.018E-01	5.545E-01	0.000E+00	0.000E+00	7.086E-01	6.563E-01
1.520E-01	5.173E-02	1.017E-01	5.441E-01	0.000E+00	0.000E+00	6.975E-01	6.458E-01
1.530E-01	5.112E-02	1.015E-01	5.340E-01	0.000E+00	0.000E+00	6.867E-01	6.356E-01
1.540E-01	5.052E-02	1.014E-01	5.242E-01	0.000E+00	0.000E+00	6.761E-01	6.256E-01
1.550E-01	4.994E-02	1.013E-01	5.146E-01	0.000E+00	0.000E+00	6.658E-01	6.159E-01
1.560E-01	4.936E-02	1.011E-01	5.053E-01	0.000E+00	0.000E+00	6.557E-01	6.064E-01
1.570E-01	4.879E-02	1.010E-01	4.961E-01	0.000E+00	0.000E+00	6.459E-01	5.971E-01
1.580E-01	4.824E-02	1.009E-01	4.872E-01	0.000E+00	0.000E+00	6.363E-01	5.881E-01
1.590E-01	4.769E-02	1.007E-01	4.785E-01	0.000E+00	0.000E+00	6.270E-01	5.793E-01
1.600E-01	4.715E-02	1.006E-01	4.700E-01	0.000E+00	0.000E+00	6.178E-01	5.706E-01
1.610E-01	4.662E-02	1.005E-01	4.618E-01	0.000E+00	0.000E+00	6.089E-01	5.622E-01
1.620E-01	4.610E-02	1.003E-01	4.537E-01	0.000E+00	0.000E+00	6.001E-01	5.540E-01
1.630E-01	4.559E-02	1.002E-01	4.458E-01	0.000E+00	0.000E+00	5.916E-01	5.460E-01
1.640E-01	4.509E-02	1.001E-01	4.381E-01	0.000E+00	0.000E+00	5.832E-01	5.381E-01
1.650E-01	4.459E-02	9.995E-02	4.305E-01	0.000E+00	0.000E+00	5.751E-01	5.305E-01
1.660E-01	4.411E-02	9.982E-02	4.232E-01	0.000E+00	0.000E+00	5.671E-01	5.230E-01
1.670E-01	4.363E-02	9.969E-02	4.160E-01	0.000E+00	0.000E+00	5.593E-01	5.157E-01
1.680E-01	4.316E-02	9.956E-02	4.090E-01	0.000E+00	0.000E+00	5.517E-01	5.085E-01
1.690E-01	4.270E-02	9.943E-02	4.021E-01	0.000E+00	0.000E+00	5.442E-01	5.015E-01
1.700E-01	4.224E-02	9.930E-02	3.954E-01	0.000E+00	0.000E+00	5.369E-01	4.947E-01
1.710E-01	4.179E-02	9.918E-02	3.888E-01	0.000E+00	0.000E+00	5.298E-01	4.880E-01
1.720E-01	4.135E-02	9.905E-02	3.824E-01	0.000E+00	0.000E+00	5.228E-01	4.815E-01
1.730E-01	4.091E-02	9.892E-02	3.762E-01	0.000E+00	0.000E+00	5.160E-01	4.751E-01
1.740E-01	4.049E-02	9.879E-02	3.700E-01	0.000E+00	0.000E+00	5.093E-01	4.688E-01
1.750E-01	4.007E-02	9.866E-02	3.640E-01	0.000E+00	0.000E+00	5.028E-01	4.627E-01
1.760E-01	3.965E-02	9.853E-02	3.582E-01	0.000E+00	0.000E+00	4.964E-01	4.567E-01
1.770E-01	3.924E-02	9.841E-02	3.524E-01	0.000E+00	0.000E+00	4.901E-01	4.509E-01
1.780E-01	3.884E-02	9.828E-02	3.468E-01	0.000E+00	0.000E+00	4.840E-01	4.451E-01
1.790E-01	3.845E-02	9.815E-02	3.413E-01	0.000E+00	0.000E+00	4.779E-01	4.395E-01
1.800E-01	3.806E-02	9.802E-02	3.360E-01	0.000E+00	0.000E+00	4.721E-01	4.340E-01
1.810E-01	3.767E-02	9.790E-02	3.307E-01	0.000E+00	0.000E+00	4.663E-01	4.286E-01
1.820E-01	3.729E-02	9.777E-02	3.256E-01	0.000E+00	0.000E+00	4.606E-01	4.233E-01
1.830E-01	3.692E-02	9.765E-02	3.205E-01	0.000E+00	0.000E+00	4.551E-01	4.182E-01
1.840E-01	3.656E-02	9.752E-02	3.156E-01	0.000E+00	0.000E+00	4.497E-01	4.131E-01
1.850E-01	3.619E-02	9.739E-02	3.108E-01	0.000E+00	0.000E+00	4.444E-01	4.082E-01
1.860E-01	3.584E-02	9.727E-02	3.060E-01	0.000E+00	0.000E+00	4.391E-01	4.033E-01
1.870E-01	3.549E-02	9.714E-02	3.014E-01	0.000E+00	0.000E+00	4.340E-01	3.986E-01
1.880E-01	3.514E-02	9.702E-02	2.969E-01	0.000E+00	0.000E+00	4.290E-01	3.939E-01
1.890E-01	3.480E-02	9.689E-02	2.924E-01	0.000E+00	0.000E+00	4.241E-01	3.893E-01
1.900E-01	3.446E-02	9.677E-02	2.881E-01	0.000E+00	0.000E+00	4.193E-01	3.848E-01
1.910E-01	3.413E-02	9.665E-02	2.838E-01	0.000E+00	0.000E+00	4.146E-01	3.805E-01
1.920E-01	3.381E-02	9.652E-02	2.796E-01	0.000E+00	0.000E+00	4.100E-01	3.762E-01
1.930E-01	3.349E-02	9.640E-02	2.755E-01	0.000E+00	0.000E+00	4.054E-01	3.719E-01
1.940E-01	3.317E-02	9.628E-02	2.715E-01	0.000E+00	0.000E+00	4.010E-01	3.678E-01
1.950E-01	3.286E-02	9.615E-02	2.676E-01	0.000E+00	0.000E+00	3.966E-01	3.637E-01
1.960E-01	3.255E-02	9.603E-02	2.637E-01	0.000E+00	0.000E+00	3.923E-01	3.598E-01
1.970E-01	3.224E-02	9.591E-02	2.599E-01	0.000E+00	0.000E+00	3.881E-01	3.558E-01
1.980E-01	3.194E-02	9.579E-02	2.562E-01	0.000E+00	0.000E+00	3.840E-01	3.520E-01
1.990E-01	3.165E-02	9.567E-02	2.526E-01	0.000E+00	0.000E+00	3.799E-01	3.483E-01
2.000E-01	3.136E-02	9.555E-02	2.490E-01	0.000E+00	0.000E+00	3.759E-01	3.446E-01
2.010E-01	3.107E-02	9.542E-02	2.455E-01	0.000E+00	0.000E+00	3.720E-01	3.409E-01
2.020E-01	3.078E-02	9.530E-02	2.421E-01	0.000E+00	0.000E+00	3.682E-01	3.374E-01
2.030E-01	3.050E-02	9.518E-02	2.387E-01	0.000E+00	0.000E+00	3.644E-01	3.339E-01
2.040E-01	3.023E-02	9.506E-02	2.354E-01	0.000E+00	0.000E+00	3.607E-01	3.305E-01
2.050E-01	2.996E-02	9.494E-02	2.322E-01	0.000E+00	0.000E+00	3.571E-01	3.271E-01
2.060E-01	2.969E-02	9.482E-02	2.290E-01	0.000E+00	0.000E+00	3.535E-01	3.238E-01
2.070E-01	2.942E-02	9.471E-02	2.259E-01	0.000E+00	0.000E+00	3.500E-01	3.206E-01
2.080E-01	2.916E-02	9.459E-02	2.228E-01	0.000E+00	0.000E+00	3.466E-01	3.174E-01
2.090E-01	2.890E-02	9.447E-02	2.198E-01	0.000E+00	0.000E+00	3.432E-01	3.143E-01
2.100E-01	2.865E-02	9.435E-02	2.169E-01	0.000E+00	0.000E+00	3.399E-01	3.112E-01
2.110E-01	2.840E-02	9.423E-02	2.140E-01	0.000E+00	0.000E+00	3.366E-01	3.082E-01
2.120E-01	2.815E-02	9.412E-02	2.111E-01	0.000E+00	0.000E+00	3.334E-01	3.052E-01
2.130E-01	2.790E-02	9.400E-02	2.083E-01	0.000E+00	0.000E+00	3.302E-01	3.023E-01
2.140E-01	2.766E-02	9.388E-02	2.056E-01	0.000E+00	0.000E+00	3.271E-01	2.995E-01
2.150E-01	2.742E-02	9.377E-02	2.029E-01	0.000E+00	0.000E+00	3.241E-01	2.967E-01
2.160E-01	2.719E-02	9.365E-02	2.003E-01	0.000E+00	0.000E+00	3.211E-01	2.939E-01
2.170E-01	2.695E-02	9.353E-02	1.977E-01	0.000E+00	0.000E+00	3.181E-01	2.912E-01
2.180E-01	2.672E-02	9.342E-02	1.951E-01	0.000E+00	0.000E+00	3.152E-01	2.885E-01
2.190E-01	2.650E-02	9.330E-02	1.926E-01	0.000E+00	0.000E+00	3.124E-01	2.859E-01
2.200E-01	2.627E-02	9.319E-02	1.901E-01	0.000E+00	0.000E+00	3.096E-01	2.833E-01
2.210E-01	2.605E-02	9.307E-02	1.877E-01	0.000E+00	0.000E+00	3.068E-01	2.808E-01
2.220E-01	2.583E-02	9.296E-02	1.853E-01	0.000E+00	0.000E+00	3.041E-01	2.783E-01
2.230E-01	2.562E-02	9.285E-02	1.830E-01	0.000E+00	0.000E+00	3.015E-01	2.758E-01
2.240E-01	2.540E-02	9.273E-02	1.807E-01	0.000E+00	0.000E+00	2.988E-01	2.734E-01
2.250E-01	2.519E-02	9.262E-02	1.785E-01	0.000E+00	0.000E+00	2.963E-01	2.711E-01
2.260E-01	2.499E-02	9.251E-02	1.762E-01	0.000E+00	0.000E+00	2.937E-01	2.687E-01
2.270E-01	2.478E-02	9.239E-02	1.741E-01	0.000E+00	0.000E+00	2.912E-01	2.664E-01
2.280E-01	2.458E-02	9.228E-02	1.719E-01	0.000E+00	0.000E+00	2.888E-01	2.642E-01
2.290E-01	2.438E-02	9.217E-02	1.698E-01	0.000E+00	0.000E+00	2.864E-01	2.620E-01
2.300E-01	2.418E-02	9.206E-02	1.677E-01	0.000E+00	0.000E+00	2.840E-01	2.598E-01
2.310E-01	2.398E-02	9.195E-02	1.657E-01	0.000E+00	0.000E+00	2.816E-01	2.576E-01
2.320E-01	2.379E-02	9.183E-02	1.637E-01	0.000E+00	0.000E+00	2.793E-01	2.555E-01
2.330E-01	2.360E-02	9.172E-02	1.617E-01	0.000E+00	0.000E+00	2.771E-01	2.535E-01
2.340E-01	2.341E-02	9.161E-02	1.598E-01	0.000E+00	0.000E+00	2.748E-01	2.514E-01
2.350E-01	2.323E-02	9.150E-02	1.579E-01	0.000E+00	0.000E+00	2.726E-01	2.494E-01
2.360E-01	2.304E-02	9.139E-02	1.560E-01	0.000E+00	0.000E+00	2.704E-01	2.474E-01
2.370E-01	2.286E-02	9.128E-02	1.542E-01	0.000E+00	0.000E+00	2.683E-01	2.455E-01
2.380E-01	2.268E-02	9.117E-02	1.524E-01	0.000E+00	0.000E+00	2.662E-01	2.435E-01
2.390E-01	2.250E-02	9.106E-02	1.506E-01	0.000E+00	0.000E+00	2.641E-01	2.416E-01
2.400E-01	2.233E-02	9.096E-02	1.488E-01	0.000E+00	0.000E+00	2.621E-01	2.398E-01
2.410E-01	2.215E-02	9.085E-02	1.471E-01	0.000E+00	0.000E+00	2.601E-01	2.379E-01
2.420E-01	2.198E-02	9.074E-02	1.454E-01	0.000E+00	0.000E+00	2.581E-01	2.361E-01
2.430E-01	2.181E-02	9.063E-02	1.437E-01	0.000E+00	0.000E+00	2.562E-01	2.344E-01
2.440E-01	2.164E-02	9.052E-02	1.421E-01	0.000E+00	0.000E+00	2.542E-01	2.326E-01
2.450E-01	2.148E-02	9.042E-02	1.405E-01	0.000E+00	0.000E+00	2.524E-01	2.309E-01
2.460E-01	2.131E-02	9.031E-02	1.389E-01	0.000E+00	0.000E+00	2.505E-01	2.292E-01
2.470E-01	2.115E-02	9.020E-02	1.373E-01	0.000E+00	0.000E+00	2.487E-01	2.275E-01
2.480E-01	2.099E-02	9.010E-02	1.358E-01	0.000E+00	0.000E+00	2.468E-01	2.259E-01
2.490E-01	2.083E-02	8.999E-02	1.342E-01	0.000E+00	0.000E+00	2.451E-01	2.242E-01
2.500E-01	2.068E-02	8.988E-02	1.327E-01	0.000E+00	0.000E+00	2.433E-01	2.226E-01
2.510E-01	2.052E-02	8.978E-02	1.313E-01	0.000E+00	0.000E+00	2.416E-01	2.210E-01
2.520E-01	2.037E-02	8.967E-02	1.298E-01	0.000E+00	0.000E+00	2.399E-01	2.195E-01
2.530E-01	2.022E-02	8.957E-02	1.284E-01	0.000E+00	0.000E+00	2.382E-01	2.180E-01
2.540E-01	2.007E-02	8.946E-02	1.270E-01	0.000E+00	0.000E+00	2.365E-01	2.164E-01
2.550E-01	1.992E-02	8.936E-02	1.256E-01	0.000E+00	0.000E+00	2.349E-01	2.150E-01
2.560E-01	1.977E-02	8.926E-02	1.242E-01	0.000E+00	0.000E+00	2.333E-01	2.135E-01
2.570E-01	1.963E-02	8.915E-02	1.229E-01	0.000E+00	0.000E+00	2.317E-01	2.120E-01
2.580E-01	1.949E-02	8.905E-02	1.216E-01	0.000E+00	0.000E+00	2.301E-01	2.106E-01
2.590E-01	1.934E-02	8.895E-02	1.203E-01	0.000E+00	0.000E+00	2.285E-01	2.092E-01
2.600E-01	1.920E-02	8.884E-02	1.190E-01	0.000E+00	0.000E+00	2.270E-01	2.078E-01
2.610E-01	1.907E-02	8.874E-02	1.177E-01	0.000E+00	0.000E+00	2.255E-01	2.064E-01
2.620E-01	1.893E-02	8.864E-02	1.165E-01	0.000E+00	0.000E+00	2.240E-01	2.051E-01
2.630E-01	1.879E-02	8.854E-02	1.152E-01	0.000E+00	0.000E+00	2.226E-01	2.038E-01
2.640E-01	1.866E-02	8.843E-02	1.140E-01	0.000E+00	0.000E+00	2.211E-01	2.025E-01
2.650E-01	1.853E-02	8.833E-02	1.128E-01	0.000E+00	0.000E+00	2.197E-01	2.012E-01
2.660E-01	1.839E-02	8.823E-02	1.116E-01	0.000E+00	0.000E+00	2.183E-01	1.999E-01
2.670E-01	1.826E-02	8.813E-02	1.105E-01	0.000E+00	0.000E+00	2.169E-01	1.986E-01
2.680E-01	1.814E-02	8.803E-02	1.093E-01	0.000E+00	0.000E+00	2.155E-01	1.974E-01
2.690E-01	1.801E-02	8.793E-02	1.082E-01	0.000E+00	0.000E+00	2.142E-01	1.962E-01
2.700E-01	1.788E-02	8.783E-02	1.071E-01	0.000E+00	0.000E+00	2.128E-01	1.949E-01
2.710E-01	1.776E-02	8.773E-02	1.060E-01	0.000E+00	0.000E+00	2.115E-01	1.937E-01
2.720E-01	1.763E-02	8.763E-02	1.049E-01	0.000E+00	0.000E+00	2.102E-01	1.926E-01
2.730E-01	1.751E-02	8.753E-02	1.039E-01	0.000E+00	0.000E+00	2.089E-01	1.914E-01
2.740E-01	1.739E-02	8.743E-02	1.028E-01	0.000E+00	0.000E+00	2.077E-01	1.903E-01
2.750E-01	1.727E-02	8.733E-02	1.018E-01	0.000E+00	0.000E+00	2.064E-01	1.891E-01
2.760E-01	1.715E-02	8.723E-02	1.008E-01	0.000E+00	0.000E+00	2.052E-01	1.880E-01
2.770E-01	1.704E-02	8.714E-02	9.978E-02	0.000E+00	0.000E+00	2.039E-01	1.869E-01
2.780E-01	1.692E-02	8.704E-02	9.879E-02	0.000E+00	0.000E+00	2.027E-01	1.858E-01
2.790E-01	1.681E-02	8.694E-02	9.781E-02	0.000E+00	0.000E+00	2.016E-01	1.847E-01
2.800E-01	1.669E-02	8.684E-02	9.685E-02	0.000E+00	0.000E+00	2.004E-01	1.837E-01
2.810E-01	1.658E-02	8.675E-02	9.590E-02	0.000E+00	0.000E+00	1.992E-01	1.826E-01
2.820E-01	1.647E-02	8.665E-02	9.496E-02	0.000E+00	0.000E+00	1.981E-01	1.816E-01
2.830E-01	1.636E-02	8.655E-02	9.403E-02	0.000E+00	0.000E+00	1.969E-01	1.806E-01
2.840E-01	1.625E-02	8.646E-02	9.312E-02	0.000E+00	0.000E+00	1.958E-01	1.796E-01
2.850E-01	1.614E-02	8.636E-02	9.222E-02	0.000E+00	0.000E+00	1.947E-01	1.786E-01
2.860E-01	1.603E-02	8.626E-02	9.134E-02	0.000E+00	0.000E+00	1.936E-01	1.776E-01
2.870E-01	1.593E-02	8.617E-02	9.046E-02	0.000E+00	0.000E+00	1.926E-01	1.766E-01
2.880E-01	1.582E-02	8.607E-02	8.960E-02	0.000E+00	0.000E+00	1.915E-01	1.757E-01
2.890E-01	1.572E-02	8.598E-02	8.875E-02	0.000E+00	0.000E+00	1.904E-01	1.747E-01
2.900E-01	1.562E-02	8.588E-02	8.791E-02	0.000E+00	0.000E+00	1.894E-01	1.738E-01
2.910E-01	1.551E-02	8.579E-02	8.708E-02	0.000E+00	0.000E+00	1.884E-01	1.729E-01
2.920E-01	1.541E-02	8.569E-02	8.626E-02	0.000E+00	0.000E+00	1.874E-01	1.720E-01
2.930E-01	1.531E-02	8.560E-02	8.545E-02	0.000E+00	0.000E+00	1.864E-01	1.711E-01
2.940E-01	1.521E-02	8.551E-02	8.466E-02	0.000E+00	0.000E+00	1.854E-01	1.702E-01
2.950E-01	1.512E-02	8.541E-02	8.387E-02	0.000E+00	0.000E+00	1.844E-01	1.693E-01
2.960E-01	1.502E-02	8.532E-02	8.309E-02	0.000E+00	0.000E+00	1.834E-01	1.684E-01
2.970E-01	1.492E-02	8.523E-02	8.233E-02	0.000E+00	0.000E+00	1.825E-01	1.676E-01
2.980E-01	1.483E-02	8.513E-02	8.157E-02	0.000E+00	0.000E+00	1.815E-01	1.667E-01
2.990E-01	1.473E-02	8.504E-02	8.082E-02	0.000E+00	0.000E+00	1.806E-01	1.659E-01
3.000E-01	1.464E-02	8.495E-02	8.009E-02	0.000E+00	0.000E+00	1.797E-01	1.650E-01
3.010E-01	1.455E-02	8.486E-02	7.936E-02	0.000E+00	0.000E+00	1.788E-01	1.642E-01
3.020E-01	1.446E-02	8.477E-02	7.864E-02	0.000E+00	0.000E+00	1.779E-01	1.634E-01
3.030E-01	1.437E-02	8.467E-02	7.793E-02	0.000E+00	0.000E+00	1.770E-01	1.626E-01
3.040E-01	1.428E-02	8.458E-02	7.723E-02	0.000E+00	0.000E+00	1.761E-01	1.618E-01
3.050E-01	1.419E-02	8.449E-02	7.654E-02	0.000E+00	0.000E+00	1.752E-01	1.610E-01
3.060E-01	1.410E-02	8.440E-02	7.586E-02	0.000E+00	0.000E+00	1.744E-01	1.603E-01
3.070E-01	1.401E-02	8.431E-02	7.519E-02	0.000E+00	0.000E+00	1.735E-01	1.595E-01
3.080E-01	1.393E-02	8.422E-02	7.452E-02	0.000E+00	0.000E+00	1.727E-01	1.587E-01
3.090E-01	1.384E-02	8.413E-02	7.386E-02	0.000E+00	0.000E+00	1.718E-01	1.580E-01
3.100E-01	1.376E-02	8.404E-02	7.321E-02	0.000E+00	0.000E+00	1.710E-01	1.573E-01
3.110E-01	1.367E-02	8.395E-02	7.257E-02	0.000E+00	0.000E+00	1.702E-01	1.565E-01
3.120E-01	1.359E-02	8.386E-02	7.194E-02	0.000E+00	0.000E+00	1.694E-01	1.558E-01
3.130E-01	1.350E-02	8.377E-02	7.132E-02	0.000E+00	0.000E+00	1.686E-01	1.551E-01
3.140E-01	1.342E-02	8.368E-02	7.070E-02	0.000E+00	0.000E+00	1.678E-01	1.544E-01
3.150E-01	1.334E-02	8.359E-02	7.009E-02	0.000E+00	0.000E+00	1.670E-01	1.537E-01
3.160E-01	1.326E-02	8.351E-02	6.949E-02	0.000E+00	0.000E+00	1.663E-01	1.530E-01
3.170E-01	1.318E-02	8.342E-02	6.889E-02	0.000E+00	0.000E+00	1.655E-01	1.523E-01
3.180E-01	1.310E-02	8.333E-02	6.830E-02	0.000E+00	0.000E+00	1.647E-01	1.516E-01
3.190E-01	1.302E-02	8.324E-02	6.772E-02	0.000E+00	0.000E+00	1.640E-01	1.510E-01
3.200E-01	1.295E-02	8.315E-02	6.715E-02	0.000E+00	0.000E+00	1.632E-01	1.503E-01
3.210E-01	1.287E-02	8.307E-02	6.658E-02	0.000E+00	0.000E+00	1.625E-01	1.496E-01
3.220E-01	1.279E-02	8.298E-02	6.602E-02	0.000E+00	0.000E+00	1.618E-01	1.490E-01
3.230E-01	1.272E-02	8.289E-02	6.547E-02	0.000E+00	0.000E+00	1.611E-01	1.484E-01
3.240E-01	1.264E-02	8.281E-02	6.492E-02	0.000E+00	0.000E+00	1.604E-01	1.477E-01
3.250E-01	1.257E-02	8.272E-02	6.438E-02	0.000E+00	0.000E+00	1.597E-01	1.471E-01
3.260E-01	1.250E-02	8.264E-02	6.385E-02	0.000E+00	0.000E+00	1.590E-01	1.465E-01
3.270E-01	1.242E-02	8.255E-02	6.332E-02	0.000E+00	0.000E+00	1.583E-01	1.459E-01
3.280E-01	1.235E-02	8.246E-02	6.280E-02	0.000E+00	0.000E+00	1.576E-01	1.453E-01
3.290E-01	1.228E-02	8.238E-02	6.228E-02	0.000E+00	0.000E+00	1.569E-01	1.447E-01
3.300E-01	1.221E-02	8.229E-02	6.177E-02	0.000E+00	0.000E+00	1.563E-01	1.441E-01
3.310E-01	1.214E-02	8.221E-02	6.127E-02	0.000E+00	0.000E+00	1.556E-01	1.435E-01
3.320E-01	1.207E-02	8.212E-02	6.077E-02	0.000E+00	0.000E+00	1.550E-01	1.429E-01
3.330E-01	1.200E-02	8.204E-02	6.028E-02	0.000E+00	0.000E+00	1.543E-01	1.423E-01
3.340E-01	1.193E-02	8.196E-02	5.979E-02	0.000E+00	0.000E+00	1.537E-01	1.417E-01
3.350E-01	1.186E-02	8.187E-02	5.931E-02	0.000E+00	0.000E+00	1.530E-01	1.412E-01
3.360E-01	1.179E-02	8.179E-02	5.883E-02	0.000E+00	0.000E+00	1.524E-01	1.406E-01
3.370E-01	1.173E-02	8.170E-02	5.836E-02	0.000E+00	0.000E+00	1.518E-01	1.401E-01
3.380E-01	1.166E-02	8.162E-02	5.790E-02	0.000E+00	0.000E+00	1.512E-01	1.395E-01
3.390E-01	1.160E-02	8.154E-02	5.744E-02	0.000E+00	0.000E+00	1.506E-01	1.390E-01
3.400E-01	1.153E-02	8.145E-02	5.699E-02	0.000E+00	0.000E+00	1.500E-01	1.384E-01
3.410E-01	1.147E-02	8.137E-02	5.654E-02	0.000E+00	0.000E+00	1.494E-01	1.379E-01
3.420E-01	1.140E-02	8.129E-02	5.609E-02	0.000E+00	0.000E+00	1.488E-01	1.374E-01
3.430E-01	1.134E-02	8.121E-02	5.565E-02	0.000E+00	0.000E+00	1.482E-01	1.369E-01
3.440E-01	1.127E-02	8.113E-02	5.522E-02	0.000E+00	0.000E+00	1.476E-01	1.363E-01
3.450E-01	1.121E-02	8.104E-02	5.479E-02	0.000E+00	0.000E+00	1.470E-01	1.358E-01
3.460E-01	1.115E-02	8.096E-02	5.437E-02	0.000E+00	0.000E+00	1.465E-01	1.353E-01
3.470E-01	1.109E-02	8.088E-02	5.395E-02	0.000E+00	0.000E+00	1.459E-01	1.348E-01
3.480E-01	1.103E-02	8.080E-02	5.353E-02	0.000E+00	0.000E+00	1.454E-01	1.343E-01
3.490E-01	1.097E-02	8.072E-02	5.312E-02	0.000E+00	0.000E+00	1.448E-01	1.338E-01
3.500E-01	1.091E-02	8.064E-02	5.271E-02	0.000E+00	0.000E+00	1.443E-01	1.334E-01
3.510E-01	1.085E-02	8.056E-02	5.231E-02	0.000E+00	0.000E+00	1.437E-01	1.329E-01
3.520E-01	1.079E-02	8.048E-02	5.191E-02	0.000E+00	0.000E+00	1.432E-01	1.324E-01
3.530E-01	1.073E-02	8.040E-02	5.152E-02	0.000E+00	0.000E+00	1.427E-01	1.319E-01
3.540E-01	1.067E-02	8.032E-02	5.113E-02	0.000E+00	0.000E+00	1.421E-01	1.315E-01
3.550E-01	1.061E-02	8.024E-02	5.075E-02	0.000E+00	0.000E+00	1.416E-01	1.310E-01
3.560E-01	1.056E-02	8.016E-02	5.037E-02	0.000E+00	0.000E+00	1.411E-01	1.305E-01
3.570E-01	1.050E-02	8.008E-02	4.999E-02	0.000E+00	0.000E+00	1.406E-01	1.301E-01
3.580E-01	1.044E-02	8.000E-02	4.962E-02	0.000E+00	0.000E+00	1.401E-01	1.296E-01
3.590E-01	1.039E-02	7.992E-02	4.925E-02	0.000E+00	0.000E+00	1.396E-01	1.292E-01
3.600E-01	1.033E-02	7.985E-02	4.889E-02	0.000E+00	0.000E+00	1.391E-01	1.287E-01
3.610E-01	1.028E-02	7.977E-02	4.852E-02	0.000E+00	0.000E+00	1.386E-01	1.283E-01
3.620E-01	1.022E-02	7.969E-02	4.817E-02	0.000E+00	0.000E+00	1.381E-01	1.279E-01
3.630E-01	1.017E-02	7.961E-02	4.781E-02	0.000E+00	0.000E+00	1.376E-01	1.274E-01
3.640E-01	1.012E-02	7.953E-02	4.747E-02	0.000E+00	0.000E+00	1.371E-01	1.270E-01
3.650E-01	1.006E-02	7.946E-02	4.712E-02	0.000E+00	0.000E+00	1.366E-01	1.266E-01
3.660E-01	1.001E-02	7.938E-02	4.678E-02	0.000E+00	0.000E+00	1.362E-01	1.262E-01
3.670E-01	9.958E-03	7.930E-02	4.644E-02	0.000E+00	0.000E+00	1.357E-01	1.257E-01
3.680E-01	9.906E-03	7.923E-02	4.610E-02	0.000E+00	0.000E+00	1.352E-01	1.253E-01
3.690E-01	9.854E-03	7.915E-02	4.577E-02	0.000E+00	0.000E+00	1.348E-01	1.249E-01
3.700E-01	9.803E-03	7.907E-02	4.544E-02	0.000E+00	0.000E+00	1.343E-01	1.245E-01
3.710E-01	9.752E-03	7.900E-02	4.512E-02	0.000E+00	0.000E+00	1.339E-01	1.241E-01
3.720E-01	9.702E-03	7.892E-02	4.480E-02	0.000E+00	0.000E+00	1.334E-01	1.237E-01
3.730E-01	9.652E-03	7.885E-02	4.448E-02	0.000E+00	0.000E+00	1.330E-01	1.233E-01
3.740E-01	9.602E-03	7.877E-02	4.416E-02	0.000E+00	0.000E+00	1.325E-01	1.229E-01
3.750E-01	9.553E-03	7.869E-02	4.385E-02	0.000E+00	0.000E+00	1.321E-01	1.225E-01
3.760E-01	9.504E-03	7.862E-02	4.354E-02	0.000E+00	0.000E+00	1.317E-01	1.222E-01
3.770E-01	9.456E-03	7.854E-02	4.324E-02	0.000E+00	0.000E+00	1.312E-01	1.218E-01
3.780E-01	9.408E-03	7.847E-02	4.294E-02	0.000E+00	0.000E+00	1.308E-01	1.214E-01
3.790E-01	9.360E-03	7.840E-02	4.264E-02	0.000E+00	0.000E+00	1.304E-01	1.210E-01
3.800E-01	9.312E-03	7.832E-02	4.234E-02	0.000E+00	0.000E+00	1.300E-01	1.207E-01
3.810E-01	9.265E-03	7.825E-02	4.205E-02	0.000E+00	0.000E+00	1.296E-01	1.203E-01
3.820E-01	9.219E-03	7.817E-02	4.176E-02	0.000E+00	0.000E+00	1.291E-01	1.199E-01
3.830E-01	9.172E-03	7.810E-02	4.147E-02	0.000E+00	0.000E+00	1.287E-01	1.196E-01
3.840E-01	9.126E-03	7.803E-02	4.118E-02	0.000E+00	0.000E+00	1.283E-01	1.192E-01
3.850E-01	9.081E-03	7.795E-02	4.090E-02	0.000E+00	0.000E+00	1.279E-01	1.189E-01
3.860E-01	9.036E-03	7.788E-02	4.062E-02	0.000E+00	0.000E+00	1.275E-01	1.185E-01
3.870E-01	8.991E-03	7.781E-02	4.035E-02	0.000E+00	0.000E+00	1.271E-01	1.182E-01
3.880E-01	8.946E-03	7.773E-02	4.007E-02	0.000E+00	0.000E+00	1.268E-01	1.178E-01
3.890E-01	8.902E-03	7.766E-02	3.980E-02	0.000E+00	0.000E+00	1.264E-01	1.175E-01
3.900E-01	8.858E-03	7.759E-02	3.953E-02	0.000E+00	0.000E+00	1.260E-01	1.171E-01
3.910E-01	8.814E-03	7.752E-02	3.927E-02	0.000E+00	0.000E+00	1.256E-01	1.168E-01
3.920E-01	8.771E-03	7.744E-02	3.901E-02	0.000E+00	0.000E+00	1.252E-01	1.164E-01
3.930E-01	8.728E-03	7.737E-02	3.874E-02	0.000E+00	0.000E+00	1.248E-01	1.161E-01
3.940E-01	8.685E-03	7.730E-02	3.849E-02	0.000E+00	0.000E+00	1.245E-01	1.158E-01
3.950E-01	8.643E-03	7.723E-02	3.823E-02	0.000E+00	0.000E+00	1.241E-01	1.155E-01
3.960E-01	8.601E-03	7.716E-02	3.798E-02	0.000E+00	0.000E+00	1.237E-01	1.151E-01
3.970E-01	8.559E-03	7.709E-02	3.773E-02	0.000E+00	0.000E+00	1.234E-01	1.148E-01
3.980E-01	8.517E-03	7.702E-02	3.748E-02	0.000E+00	0.000E+00	1.230E-01	1.145E-01
3.990E-01	8.476E-03	7.695E-02	3.723E-02	0.000E+00	0.000E+00	1.227E-01	1.142E-01
4.000E-01	8.435E-03	7.688E-02	3.699E-02	0.000E+00	0.000E+00	1.223E-01	1.139E-01
4.010E-01	8.395E-03	7.681E-02	3.675E-02	0.000E+00	0.000E+00	1.219E-01	1.136E-01
4.020E-01	8.354E-03	7.674E-02	3.651E-02	0.000E+00	0.000E+00	1.216E-01	1.132E-01
4.030E-01	8.314E-03	7.667E-02	3.627E-02	0.000E+00	0.000E+00	1.213E-01	1.129E-01
4.040E-01	8.275E-03	7.660E-02	3.604E-02	0.000E+00	0.000E+00	1.209E-01	1.126E-01
4.050E-01	8.235E-03	7.653E-02	3.580E-02	0.000E+00	0.000E+00	1.206E-01	1.123E-01
4.060E-01	8.196E-03	7.646E-02	3.557E-02	0.000E+00	0.000E+00	1.202E-01	1.120E-01
4.070E-01	8.157E-03	7.639E-02	3.535E-02	0.000E+00	0.000E+00	1.199E-01	1.117E-01
4.080E-01	8.119E-03	7.632E-02	3.512E-02	0.000E+00	0.000E+00	1.196E-01	1.114E-01
4.090E-01	8.080E-03	7.625E-02	3.490E-02	0.000E+00	0.000E+00	1.192E-01	1.111E-01
4.100E-01	8.042E-03	7.618E-02	3.467E-02	0.000E+00	0.000E+00	1.189E-01	1.109E-01
4.110E-01	8.004E-03	7.611E-02	3.445E-02	0.000E+00	0.000E+00	1.186E-01	1.106E-01
4.120E-01	7.967E-03	7.605E-02	3.424E-02	0.000E+00	0.000E+00	1.182E-01	1.103E-01
4.130E-01	7.930E-03	7.598E-02	3.402E-02	0.000E+00	0.000E+00	1.179E-01	1.100E-01
4.140E-01	7.893E-03	7.591E-02	3.381E-02	0.000E+00	0.000E+00	1.176E-01	1.097E-01
4.150E-01	7.856E-03	7.584E-02	3.360E-02	0.000E+00	0.000E+00	1.173E-01	1.094E-01
4.160E-01	7.819E-03	7.577E-02	3.339E-02	0.000E+00	0.000E+00	1.170E-01	1.092E-01
4.170E-01	7.783E-03	7.571E-02	3.318E-02	0.000E+00	0.000E+00	1.167E-01	1.089E-01
4.180E-01	7.747E-03	7.564E-02	3.297E-02	0.000E+00	0.000E+00	1.164E-01	1.086E-01
4.190E-01	7.711E-03	7.557E-02	3.277E-02	0.000E+00	0.000E+00	1.161E-01	1.083E-01
4.200E-01	7.676E-03	7.551E-02	3.257E-02	0.000E+00	0.000E+00	1.157E-01	1.081E-01
4.210E-01	7.641E-03	7.544E-02	3.236E-02	0.000E+00	0.000E+00	1.154E-01	1.078E-01
4.220E-01	7.606E-03	7.537E-02	3.217E-02	0.000E+00	0.000E+00	1.151E-01	1.075E-01
4.230E-01	7.571E-03	7.531E-02	3.197E-02	0.000E+00	0.000E+00	1.148E-01	1.073E-01
4.240E-01	7.536E-03	7.524E-02	3.177E-02	0.000E+00	0.000E+00	1.146E-01	1.070E-01
4.250E-01	7.502E-03	7.517E-02	3.158E-02	0.000E+00	0.000E+00	1.143E-01	1.068E-01
4.260E-01	7.468E-03	7.511E-02	3.139E-02	0.000E+00	0.000E+00	1.140E-01	1.065E-01
4.270E-01	7.434E-03	7.504E-02	3.120E-02	0.000E+00	0.000E+00	1.137E-01	1.062E-01
4.280E-01	7.400E-03	7.498E-02	3.101E-02	0.000E+00	0.000E+00	1.134E-01	1.060E-01
4.290E-01	7.367E-03	7.491E-02	3.082E-02	0.000E+00	0.000E+00	1.131E-01	1.057E-01
4.300E-01	7.334E-03	7.485E-02	3.064E-02	0.000E+00	0.000E+00	1.128E-01	1.055E-01
4.310E-01	7.301E-03	7.478E-02	3.046E-02	0.000E+00	0.000E+00	1.125E-01	1.052E-01
4.320E-01	7.268E-03	7.472E-02	3.027E-02	0.000E+00	0.000E+00	1.123E-01	1.050E-01
4.330E-01	7.236E-03	7.465E-02	3.009E-02	0.000E+00	0.000E+00	1.120E-01	1.047E-01
4.340E-01	7.203E-03	7.459E-02	2.991E-02	0.000E+00	0.000E+00	1.117E-01	1.045E-01
4.350E-01	7.171E-03	7.452E-02	2.974E-02	0.000E+00	0.000E+00	1.114E-01	1.043E-01
4.360E-01	7.140E-03	7.446E-02	2.956E-02	0.000E+00	0.000E+00	1.112E-01	1.040E-01
4.370E-01	7.108E-03	7.439E-02	2.939E-02	0.000E+00	0.000E+00	1.109E-01	1.038E-01
4.380E-01	7.076E-03	7.433E-02	2.922E-02	0.000E+00	0.000E+00	1.106E-01	1.035E-01
4.390E-01	7.045E-03	7.427E-02	2.904E-02	0.000E+00	0.000E+00	1.104E-01	1.033E-01
4.400E-01	7.014E-03	7.420E-02	2.887E-02	0.000E+00	0.000E+00	1.101E-01	1.031E-01
4.410E-01	6.983E-03	7.414E-02	2.871E-02	0.000E+00	0.000E+00	1.098E-01	1.028E-01
4.420E-01	6.953E-03	7.408E-02	2.854E-02	0.000E+00	0.000E+00	1.096E-01	1.026E-01
4.430E-01	6.922E-03	7.401E-02	2.837E-02	0.000E+00	0.000E+00	1.093E-01	1.024E-01
4.440E-01	6.892E-03	7.395E-02	2.821E-02	0.000E+00	0.000E+00	1.091E-01	1.022E-01
4.450E-01	6.862E-03	7.389E-02	2.805E-02	0.000E+00	0.000E+00	1.088E-01	1.019E-01
4.460E-01	6.832E-03	7.382E-02	2.789E-02	0.000E+00	0.000E+00	1.085E-01	1.017E-01
4.470E-01	6.803E-03	7.376E-02	2.773E-02	0.000E+00	0.000E+00	1.083E-01	1.015E-01
4.480E-01	6.773E-03	7.370E-02	2.757E-02	0.000E+00	0.000E+00	1.080E-01	1.013E-01
4.490E-01	6.744E-03	7.364E-02	2.741E-02	0.000E+00	0.000E+00	1.078E-01	1.010E-01
4.500E-01	6.715E-03	7.358E-02	2.726E-02	0.000E+00	0.000E+00	1.075E-01	1.008E-01
4.510E-01	6.686E-03	7.351E-02	2.710E-02	0.000E+00	0.000E+00	1.073E-01	1.006E-01
4.520E-01	6.657E-03	7.345E-02	2.695E-02	0.000E+00	0.000E+00	1.071E-01	1.004E-01
4.530E-01	6.629E-03	7.339E-02	2.680E-02	0.000E+00	0.000E+00	1.068E-01	1.002E-01
4.540E-01	6.601E-03	7.333E-02	2.665E-02	0.000E+00	0.000E+00	1.066E-01	9.997E-02
4.550E-01	6.573E-03	7.327E-02	2.650E-02	0.000E+00	0.000E+00	1.063E-01	9.976E-02
4.560E-01	6.545E-03	7.321E-02	2.635E-02	0.000E+00	0.000E+00	1.061E-01	9.955E-02
4.570E-01	6.517E-03	7.314E-02	2.620E-02	0.000E+00	0.000E+00	1.059E-01	9.935E-02
4.580E-01	6.489E-03	7.308E-02	2.606E-02	0.000E+00	0.000E+00	1.056E-01	9.914E-02
4.590E-01	6.462E-03	7.302E-02	2.591E-02	0.000E+00	0.000E+00	1.054E-01	9.893E-02
4.600E-01	6.435E-03	7.296E-02	2.577E-02	0.000E+00	0.000E+00	1.052E-01	9.873E-02
4.610E-01	6.407E-03	7.290E-02	2.563E-02	0.000E+00	0.000E+00	1.049E-01	9.853E-02
4.620E-01	6.381E-03	7.284E-02	2.549E-02	0.000E+00	0.000E+00	1.047E-01	9.833E-02
4.630E-01	6.354E-03	7.278E-02	2.535E-02	0.000E+00	0.000E+00	1.045E-01	9.813E-02
4.640E-01	6.327E-03	7.272E-02	2.521E-02	0.000E+00	0.000E+00	1.043E-01	9.793E-02
4.650E-01	6.301E-03	7.266E-02	2.507E-02	0.000E+00	0.000E+00	1.040E-01	9.773E-02
4.660E-01	6.275E-03	7.260E-02	2.493E-02	0.000E+00	0.000E+00	1.038E-01	9.753E-02
4.670E-01	6.249E-03	7.254E-02	2.480E-02	0.000E+00	0.000E+00	1.036E-01	9.734E-02
4.680E-01	6.223E-03	7.248E-02	2.466E-02	0.000E+00	0.000E+00	1.034E-01	9.714E-02
4.690E-01	6.197E-03	7.242E-02	2.453E-02	0.000E+00	0.000E+00	1.031E-01	9.695E-02
4.700E-01	6.171E-03	7.236E-02	2.440E-02	0.000E+00	0.000E+00	1.029E-01	9.676E-02
4.710E-01	6.146E-03	7.230E-02	2.427E-02	0.000E+00	0.000E+00	1.027E-01	9.657E-02
4.720E-01	6.121E-03	7.224E-02	2.414E-02	0.000E+00	0.000E+00	1.025E-01	9.638E-02
4.730E-01	6.096E-03	7.218E-02	2.401E-02	0.000E+00	0.000E+00	1.023E-01	9.619E-02
4.740E-01	6.071E-03	7.213E-02	2.388E-02	0.000E+00	0.000E+00	1.021E-01	9.601E-02
4.750E-01	6.046E-03	7.207E-02	2.375E-02	0.000E+00	0.000E+00	1.019E-01	9.582E-02
4.760E-01	6.021E-03	7.201E-02	2.363E-02	0.000E+00	0.000E+00	1.017E-01	9.564E-02
4.770E-01	5.997E-03	7.195E-02	2.350E-02	0.000E+00	0.000E+00	1.014E-01	9.545E-02
4.780E-01	5.972E-03	7.189E-02	2.338E-02	0.000E+00	0.000E+00	1.012E-01	9.527E-02
4.790E-01	5.948E-03	7.183E-02	2.326E-02	0.000E+00	0.000E+00	1.010E-01	9.509E-02
4.800E-01	5.924E-03	7.177E-02	2.313E-02	0.000E+00	0.000E+00	1.008E-01	9.491E-02
4.810E-01	5.900E-03	7.172E-02	2.301E-02	0.000E+00	0.000E+00	1.006E-01	9.473E-02
4.820E-01	5.876E-03	7.166E-02	2.289E-02	0.000E+00	0.000E+00	1.004E-01	9.455E-02
4.830E-01	5.853E-03	7.160E-02	2.277E-02	0.000E+00	0.000E+00	1.002E-01	9.438E-02
4.840E-01	5.829E-03	7.154E-02	2.266E-02	0.000E+00	0.000E+00	1.000E-01	9.420E-02
4.850E-01	5.806E-03	7.149E-02	2.254E-02	0.000E+00	0.000E+00	9.983E-02	9.402E-02
4.860E-01	5.783E-03	7.143E-02	2.242E-02	0.000E+00	0.000E+00	9.963E-02	9.385E-02
4.870E-01	5.760E-03	7.137E-02	2.231E-02	0.000E+00	0.000E+00	9.944E-02	9.368E-02
4.880E-01	5.737E-03	7.131E-02	2.219E-02	0.000E+00	0.000E+00	9.924E-02	9.351E-02
4.890E-01	5.714E-03	7.126E-02	2.208E-02	0.000E+00	0.000E+00	9.905E-02	9.334E-02
4.900E-01	5.691E-03	7.120E-02	2.197E-02	0.000E+00	0.000E+00	9.886E-02	9.317E-02
4.910E-01	5.669E-03	7.114E-02	2.185E-02	0.000E+00	0.000E+00	9.867E-02	9.300E-02
4.920E-01	5.646E-03	7.109E-02	2.174E-02	0.000E+00	0.000E+00	9.848E-02	9.283E-02
4.930E-01	5.624E-03	7.103E-02	2.163E-02	0.000E+00	0.000E+00	9.829E-02	9.266E-02
4.940E-01	5.602E-03	7.097E-02	2.152E-02	0.000E+00	0.000E+00	9.810E-02	9.250E-02
4.950E-01	5.580E-03	7.092E-02	2.141E-02	0.000E+00	0.000E+00	9.791E-02	9.233E-02
4.960E-01	5.558E-03	7.086E-02	2.131E-02	0.000E+00	0.000E+00	9.773E-02	9.217E-02
4.970E-01	5.537E-03	7.081E-02	2.120E-02	0.000E+00	0.000E+00	9.754E-02	9.201E-02
4.980E-01	5.515E-03	7.075E-02	2.109E-02	0.000E+00	0.000E+00	9.736E-02	9.184E-02
4.990E-01	5.494E-03	7.069E-02	2.099E-02	0.000E+00	0.000E+00	9.718E-02	9.168E-02
5.000E-01	5.472E-03	7.064E-02	2.088E-02	0.000E+00	0.000E+00	9.699E-02	9.152E-02
5.010E-01	5.451E-03	7.058E-02	2.078E-02	0.000E+00	0.000E+00	9.681E-02	9.136E-02
5.020E-01	5.430E-03	7.053E-02	2.068E-02	0.000E+00	0.000E+00	9.663E-02	9.120E-02
5.030E-01	5.409E-03	7.047E-02	2.058E-02	0.000E+00	0.000E+00	9.646E-02	9.105E-02
5.040E-01	5.388E-03	7.042E-02	2.047E-02	0.000E+00	0.000E+00	9.628E-02	9.089E-02
5.050E-01	5.367E-03	7.036E-02	2.037E-02	0.000E+00	0.000E+00	9.610E-02	9.073E-02
5.060E-01	5.347E-03	7.031E-02	2.027E-02	0.000E+00	0.000E+00	9.593E-02	9.058E-02
5.070E-01	5.326E-03	7.025E-02	2.017E-02	0.000E+00	0.000E+00	9.575E-02	9.043E-02
5.080E-01	5.306E-03	7.020E-02	2.008E-02	0.000E+00	0.000E+00	9.558E-02	9.027E-02
5.090E-01	5.286E-03	7.014E-02	1.998E-02	0.000E+00	0.000E+00	9.541E-02	9.012E-02
5.100E-01	5.266E-03	7.009E-02	1.988E-02	0.000E+00	0.000E+00	9.523E-02	8.997E-02
5.110E-01	5.246E-03	7.003E-02	1.978E-02	0.000E+00	0.000E+00	9.506E-02	8.982E-02
5.120E-01	5.226E-03	6.998E-02	1.969E-02	0.000E+00	0.000E+00	9.489E-02	8.967E-02
5.130E-01	5.206E-03	6.992E-02	1.959E-02	0.000E+00	0.000E+00	9.472E-02	8.952E-02
5.140E-01	5.186E-03	6.987E-02	1.950E-02	0.000E+00	0.000E+00	9.456E-02	8.937E-02
5.150E-01	5.167E-03	6.982E-02	1.941E-02	0.000E+00	0.000E+00	9.439E-02	8.922E-02
5.160E-01	5.147E-03	6.976E-02	1.931E-02	0.000E+00	0.000E+00	9.422E-02	8.908E-02
5.170E-01	5.128E-03	6.971E-02	1.922E-02	0.000E+00	0.000E+00	9.406E-02	8.893E-02
5.180E-01	5.109E-03	6.966E-02	1.913E-02	0.000E+00	0.000E+00	9.389E-02	8.878E-02
5.190E-01	5.089E-03	6.960E-02	1.904E-02	0.000E+00	0.000E+00	9.373E-02	8.864E-02
5.200E-01	5.070E-03	6.955E-02	1.895E-02	0.000E+00	0.000E+00	9.357E-02	8.850E-02
5.210E-01	5.052E-03	6.949E-02	1.886E-02	0.000E+00	0.000E+00	9.340E-02	8.835E-02
5.220E-01	5.033E-03	6.944E-02	1.877E-02	0.000E+00	0.000E+00	9.324E-02	8.821E-02
5.230E-01	5.014E-03	6.939E-02	1.868E-02	0.000E+00	0.000E+00	9.308E-02	8.807E-02
5.240E-01	4.995E-03	6.934E-02	1.859E-02	0.000E+00	0.000E+00	9.292E-02	8.793E-02
5.250E-01	4.977E-03	6.928E-02	1.851E-02	0.000E+00	0.000E+00	9.277E-02	8.779E-02
5.260E-01	4.959E-03	6.923E-02	1.842E-02	0.000E+00	0.000E+00	9.261E-02	8.765E-02
5.270E-01	4.940E-03	6.918E-02	1.833E-02	0.000E+00	0.000E+00	9.245E-02	8.751E-02
5.280E-01	4.922E-03	6.912E-02	1.825E-02	0.000E+00	0.000E+00	9.230E-02	8.737E-02
5.290E-01	4.904E-03	6.907E-02	1.816E-02	0.000E+00	0.000E+00	9.214E-02	8.724E-02
5.300E-01	4.886E-03	6.902E-02	1.808E-02	0.000E+00	0.000E+00	9.199E-02	8.710E-02
5.310E-01	4.868E-03	6.897E-02	1.800E-02	0.000E+00	0.000E+00	9.183E-02	8.696E-02
5.320E-01	4.850E-03	6.892E-02	1.791E-02	0.000E+00	0.000E+00	9.168E-02	8.683E-02
5.330E-01	4.833E-03	6.886E-02	1.783E-02	0.000E+00	0.000E+00	9.153E-02	8.669E-02
5.340E-01	4.815E-03	6.881E-02	1.775E-02	0.000E+00	0.000E+00	9.138E-02	8.656E-02
5.350E-01	4.798E-03	6.876E-02	1.767E-02	0.000E+00	0.000E+00	9.122E-02	8.643E-02
5.360E-01	4.780E-03	6.871E-02	1.759E-02	0.000E+00	0.000E+00	9.108E-02	8.629E-02
5.370E-01	4.763E-03	6.866E-02	1.751E-02	0.000E+00	0.000E+00	9.093E-02	8.616E-02
5.380E-01	4.746E-03	6.860E-02	1.743E-02	0.000E+00	0.000E+00	9.078E-02	8.603E-02
5.390E-01	4.729E-03	6.855E-02	1.735E-02	0.000E+00	0.000E+00	9.063E-02	8.590E-02
5.400E-01	4.712E-03	6.850E-02	1.727E-02	0.000E+00	0.000E+00	9.048E-02	8.577E-02
5.410E-01	4.695E-03	6.845E-02	1.719E-02	0.000E+00	0.000E+00	9.034E-02	8.564E-02
5.420E-01	4.678E-03	6.840E-02	1.711E-02	0.000E+00	0.000E+00	9.019E-02	8.551E-02
5.430E-01	4.661E-03	6.835E-02	1.704E-02	0.000E+00	0.000E+00	9.005E-02	8.539E-02
5.440E-01	4.644E-03	6.830E-02	1.696E-02	0.000E+00	0.000E+00	8.990E-02	8.526E-02
5.450E-01	4.628E-03	6.825E-02	1.689E-02	0.000E+00	0.000E+00	8.976E-02	8.513E-02
5.460E-01	4.611E-03	6.820E-02	1.681E-02	0.000E+00	0.000E+00	8.962E-02	8.501E-02
5.470E-01	4.595E-03	6.814E-02	1.674E-02	0.000E+00	0.000E+00	8.948E-02	8.488E-02
5.480E-01	4.579E-03	6.809E-02	1.666E-02	0.000E+00	0.000E+00	8.933E-02	8.476E-02
5.490E-01	4.562E-03	6.804E-02	1.659E-02	0.000E+00	0.000E+00	8.919E-02	8.463E-02
5.500E-01	4.546E-03	6.799E-02	1.651E-02	0.000E+00	0.000E+00	8.905E-02	8.451E-02
5.510E-01	4.530E-03	6.794E-02	1.644E-02	0.000E+00	0.000E+00	8.891E-02	8.438E-02
5.520E-01	4.514E-03	6.789E-02	1.637E-02	0.000E+00	0.000E+00	8.878E-02	8.426E-02
5.530E-01	4.498E-03	6.784E-02	1.630E-02	0.000E+00	0.000E+00	8.864E-02	8.414E-02
5.540E-01	4.483E-03	6.779E-02	1.623E-02	0.000E+00	0.000E+00	8.850E-02	8.402E-02
5.550E-01	4.467E-03	6.774E-02	1.615E-02	0.000E+00	0.000E+00	8.836E-02	8.390E-02
5.560E-01	4.451E-03	6.769E-02	1.608E-02	0.000E+00	0.000E+00	8.823E-02	8.378E-02
5.570E-01	4.436E-03	6.764E-02	1.601E-02	0.000E+00	0.000E+00	8.809E-02	8.366E-02
5.580E-01	4.420E-03	6.759E-02	1.594E-02	0.000E+00	0.000E+00	8.796E-02	8.354E-02
5.590E-01	4.405E-03	6.754E-02	1.587E-02	0.000E+00	0.000E+00	8.782E-02	8.342E-02
5.600E-01	4.390E-03	6.749E-02	1.581E-02	0.000E+00	0.000E+00	8.769E-02	8.330E-02
5.610E-01	4.374E-03	6.745E-02	1.574E-02	0.000E+00	0.000E+00	8.756E-02	8.318E-02
5.620E-01	4.359E-03	6.740E-02	1.567E-02	0.000E+00	0.000E+00	8.743E-02	8.307E-02
5.630E-01	4.344E-03	6.735E-02	1.560E-02	0.000E+00	0.000E+00	8.729E-02	8.295E-02
5.640E-01	4.329E-03	6.730E-02	1.554E-02	0.000E+00	0.000E+00	8.716E-02	8.283E-02
5.650E-01	4.314E-03	6.725E-02	1.547E-02	0.000E+00	0.000E+00	8.703E-02	8.272E-02
5.660E-01	4.299E-03	6.720E-02	1.540E-02	0.000E+00	0.000E+00	8.690E-02	8.260E-02
5.670E-01	4.285E-03	6.715E-02	1.534E-02	0.000E+00	0.000E+00	8.677E-02	8.249E-02
5.680E-01	4.270E-03	6.710E-02	1.527E-02	0.000E+00	0.000E+00	8.664E-02	8.238E-02
5.690E-01	4.255E-03	6.705E-02	1.521E-02	0.000E+00	0.000E+00	8.652E-02	8.226E-02
5.700E-01	4.241E-03	6.701E-02	1.514E-02	0.000E+00	0.000E+00	8.639E-02	8.215E-02
5.710E-01	4.226E-03	6.696E-02	1.508E-02	0.000E+00	0.000E+00	8.626E-02	8.204E-02
5.720E-01	4.212E-03	6.691E-02	1.502E-02	0.000E+00	0.000E+00	8.614E-02	8.192E-02
5.730E-01	4.198E-03	6.686E-02	1.495E-02	0.000E+00	0.000E+00	8.601E-02	8.181E-02
5.740E-01	4.183E-03	6.681E-02	1.489E-02	0.000E+00	0.000E+00	8.589E-02	8.170E-02
5.750E-01	4.169E-03	6.676E-02	1.483E-02	0.000E+00	0.000E+00	8.576E-02	8.159E-02
5.760E-01	4.155E-03	6.672E-02	1.476E-02	0.000E+00	0.000E+00	8.564E-02	8.148E-02
5.770E-01	4.141E-03	6.667E-02	1.470E-02	0.000E+00	0.000E+00	8.551E-02	8.137E-02
5.780E-01	4.127E-03	6.662E-02	1.464E-02	0.000E+00	0.000E+00	8.539E-02	8.126E-02
5.790E-01	4.113E-03	6.657E-02	1.458E-02	0.000E+00	0.000E+00	8.527E-02	8.115E-02
5.800E-01	4.099E-03	6.653E-02	1.452E-02	0.000E+00	0.000E+00	8.515E-02	8.105E-02
5.810E-01	4.086E-03	6.648E-02	1.446E-02	0.000E+00	0.000E+00	8.502E-02	8.094E-02
5.820E-01	4.072E-03	6.643E-02	1.440E-02	0.000E+00	0.000E+00	8.490E-02	8.083E-02
5.830E-01	4.058E-03	6.638E-02	1.434E-02	0.000E+00	0.000E+00	8.478E-02	8.072E-02
5.840E-01	4.045E-03	6.634E-02	1.428E-02	0.000E+00	0.000E+00	8.466E-02	8.062E-02
5.850E-01	4.031E-03	6.629E-02	1.422E-02	0.000E+00	0.000E+00	8.454E-02	8.051E-02
5.860E-01	4.018E-03	6.624E-02	1.416E-02	0.000E+00	0.000E+00	8.443E-02	8.041E-02
5.870E-01	4.005E-03	6.620E-02	1.411E-02	0.000E+00	0.000E+00	8.431E-02	8.030E-02
5.880E-01	3.991E-03	6.615E-02	1.405E-02	0.000E+00	0.000E+00	8.419E-02	8.020E-02
5.890E-01	3.978E-03	6.610E-02	1.399E-02	0.000E+00	0.000E+00	8.407E-02	8.009E-02
5.900E-01	3.965E-03	6.606E-02	1.394E-02	0.000E+00	0.000E+00	8.396E-02	7.999E-02
5.910E-01	3.952E-03	6.601E-02	1.388E-02	0.000E+00	0.000E+00	8.384E-02	7.989E-02
5.920E-01	3.939E-03	6.596E-02	1.382E-02	0.000E+00	0.000E+00	8.372E-02	7.978E-02
5.930E-01	3.926E-03	6.592E-02	1.377E-02	0.000E+00	0.000E+00	8.361E-02	7.968E-02
5.940E-01	3.913E-03	6.587E-02	1.371E-02	0.000E+00	0.000E+00	8.349E-02	7.958E-02
5.950E-01	3.900E-03	6.582E-02	1.366E-02	0.000E+00	0.000E+00	8.338E-02	7.948E-02
5.960E-01	3.887E-03	6.578E-02	1.360E-02	0.000E+00	0.000E+00	8.326E-02	7.938E-02
5.970E-01	3.875E-03	6.573E-02	1.355E-02	0.000E+00	0.000E+00	8.315E-02	7.928E-02
5.980E-01	3.862E-03	6.568E-02	1.349E-02	0.000E+00	0.000E+00	8.304E-02	7.918E-02
5.990E-01	3.849E-03	6.564E-02	1.344E-02	0.000E+00	0.000E+00	8.293E-02	7.908E-02
6.000E-01	3.837E-03	6.559E-02	1.338E-02	0.000E+00	0.000E+00	8.281E-02	7.898E-02
6.010E-01	3.824E-03	6.555E-02	1.333E-02	0.000E+00	0.000E+00	8.270E-02	7.888E-02
6.020E-01	3.812E-03	6.550E-02	1.328E-02	0.000E+00	0.000E+00	8.259E-02	7.878E-02
6.030E-01	3.800E-03	6.546E-02	1.323E-02	0.000E+00	0.000E+00	8.248E-02	7.868E-02
6.040E-01	3.787E-03	6.541E-02	1.317E-02	0.000E+00	0.000E+00	8.237E-02	7.858E-02
6.050E-01	3.775E-03	6.536E-02	1.312E-02	0.000E+00	0.000E+00	8.226E-02	7.849E-02
6.060E-01	3.763E-03	6.532E-02	1.307E-02	0.000E+00	0.000E+00	8.215E-02	7.839E-02
6.070E-01	3.751E-03	6.527E-02	1.302E-02	0.000E+00	0.000E+00	8.204E-02	7.829E-02
6.080E-01	3.739E-03	6.523E-02	1.297E-02	0.000E+00	0.000E+00	8.193E-02	7.820E-02
6.090E-01	3.727E-03	6.518E-02	1.292E-02	0.000E+00	0.000E+00	8.183E-02	7.810E-02
6.100E-01	3.715E-03	6.514E-02	1.287E-02	0.000E+00	0.000E+00	8.172E-02	7.800E-02
6.110E-01	3.703E-03	6.509E-02	1.282E-02	0.000E+00	0.000E+00	8.161E-02	7.791E-02
6.120E-01	3.691E-03	6.505E-02	1.277E-02	0.000E+00	0.000E+00	8.151E-02	7.781E-02
6.130E-01	3.680E-03	6.500E-02	1.272E-02	0.000E+00	0.000E+00	8.140E-02	7.772E-02
6.140E-01	3.668E-03	6.496E-02	1.267E-02	0.000E+00	0.000E+00	8.129E-02	7.763E-02
6.150E-01	3.656E-03	6.491E-02	1.262E-02	0.000E+00	0.000E+00	8.119E-02	7.753E-02
6.160E-01	3.645E-03	6.487E-02	1.257E-02	0.000E+00	0.000E+00	8.108E-02	7.744E-02
6.170E-01	3.633E-03	6.483E-02	1.252E-02	0.000E+00	0.000E+00	8.098E-02	7.735E-02
6.180E-01	3.622E-03	6.478E-02	1.247E-02	0.000E+00	0.000E+00	8.087E-02	7.725E-02
6.190E-01	3.610E-03	6.474E-02	1.242E-02	0.000E+00	0.000E+00	8.077E-02	7.716E-02
6.200E-01	3.599E-03	6.469E-02	1.238E-02	0.000E+00	0.000E+00	8.067E-02	7.707E-02
6.210E-01	3.587E-03	6.465E-02	1.233E-02	0.000E+00	0.000E+00	8.056E-02	7.698E-02
6.220E-01	3.576E-03	6.460E-02	1.228E-02	0.000E+00	0.000E+00	8.046E-02	7.689E-02
6.230E-01	3.565E-03	6.456E-02	1.224E-02	0.000E+00	0.000E+00	8.036E-02	7.680E-02
6.240E-01	3.554E-03	6.452E-02	1.219E-02	0.000E+00	0.000E+00	8.026E-02	7.670E-02
6.250E-01	3.543E-03	6.447E-02	1.214E-02	0.000E+00	0.000E+00	8.016E-02	7.661E-02
6.260E-01	3.532E-03	6.443E-02	1.210E-02	0.000E+00	0.000E+00	8.006E-02	7.652E-02
6.270E-01	3.521E-03	6.438E-02	1.205E-02	0.000E+00	0.000E+00	7.996E-02	7.644E-02
6.280E-01	3.510E-03	6.434E-02	1.201E-02	0.000E+00	0.000E+00	7.986E-02	7.635E-02
6.290E-01	3.499E-03	6.430E-02	1.196E-02	0.000E+00	0.000E+00	7.976E-02	7.626E-02
6.300E-01	3.488E-03	6.425E-02	1.191E-02	0.000E+00	0.000E+00	7.966E-02	7.617E-02
6.310E-01	3.477E-03	6.421E-02	1.187E-02	0.000E+00	0.000E+00	7.956E-02	7.608E-02
6.320E-01	3.466E-03	6.417E-02	1.183E-02	0.000E+00	0.000E+00	7.946E-02	7.599E-02
6.330E-01	3.456E-03	6.412E-02	1.178E-02	0.000E+00	0.000E+00	7.936E-02	7.591E-02
6.340E-01	3.445E-03	6.408E-02	1.174E-02	0.000E+00	0.000E+00	7.926E-02	7.582E-02
6.350E-01	3.434E-03	6.404E-02	1.169E-02	0.000E+00	0.000E+00	7.917E-02	7.573E-02
6.360E-01	3.424E-03	6.400E-02	1.165E-02	0.000E+00	0.000E+00	7.907E-02	7.565E-02
6.370E-01	3.413E-03	6.395E-02	1.161E-02	0.000E+00	0.000E+00	7.897E-02	7.556E-02
6.380E-01	3.403E-03	6.391E-02	1.156E-02	0.000E+00	0.000E+00	7.888E-02	7.547E-02
6.390E-01	3.392E-03	6.387E-02	1.152E-02	0.000E+00	0.000E+00	7.878E-02	7.539E-02
6.400E-01	3.382E-03	6.382E-02	1.148E-02	0.000E+00	0.000E+00	7.868E-02	7.530E-02
6.410E-01	3.372E-03	6.378E-02	1.144E-02	0.000E+00	0.000E+00	7.859E-02	7.522E-02
6.420E-01	3.361E-03	6.374E-02	1.139E-02	0.000E+00	0.000E+00	7.849E-02	7.513E-02
6.430E-01	3.351E-03	6.370E-02	1.135E-02	0.000E+00	0.000E+00	7.840E-02	7.505E-02
6.440E-01	3.341E-03	6.365E-02	1.131E-02	0.000E+00	0.000E+00	7.831E-02	7.497E-02
6.450E-01	3.331E-03	6.361E-02	1.127E-02	0.000E+00	0.000E+00	7.821E-02	7.488E-02
6.460E-01	3.321E-03	6.357E-02	1.123E-02	0.000E+00	0.000E+00	7.812E-02	7.480E-02
6.470E-01	3.311E-03	6.353E-02	1.119E-02	0.000E+00	0.000E+00	7.803E-02	7.472E-02
6.480E-01	3.301E-03	6.348E-02	1.115E-02	0.000E+00	0.000E+00	7.793E-02	7.463E-02
6.490E-01	3.291E-03	6.344E-02	1.111E-02	0.000E+00	0.000E+00	7.784E-02	7.455E-02
6.500E-01	3.281E-03	6.340E-02	1.107E-02	0.000E+00	0.000E+00	7.775E-02	7.447E-02
6.510E-01	3.271E-03	6.336E-02	1.103E-02	0.000E+00	0.000E+00	7.766E-02	7.439E-02
6.520E-01	3.261E-03	6.332E-02	1.099E-02	0.000E+00	0.000E+00	7.757E-02	7.430E-02
6.530E-01	3.251E-03	6.328E-02	1.095E-02	0.000E+00	0.000E+00	7.747E-02	7.422E-02
6.540E-01	3.241E-03	6.323E-02	1.091E-02	0.000E+00	0.000E+00	7.738E-02	7.414E-02
6.550E-01	3.232E-03	6.319E-02	1.087E-02	0.000E+00	0.000E+00	7.729E-02	7.406E-02
6.560E-01	3.222E-03	6.315E-02	1.083E-02	0.000E+00	0.000E+00	7.720E-02	7.398E-02
6.570E-01	3.213E-03	6.311E-02	1.079E-02	0.000E+00	0.000E+00	7.711E-02	7.390E-02
6.580E-01	3.203E-03	6.307E-02	1.075E-02	0.000E+00	0.000E+00	7.702E-02	7.382E-02
6.590E-01	3.193E-03	6.303E-02	1.072E-02	0.000E+00	0.000E+00	7.694E-02	7.374E-02
6.600E-01	3.184E-03	6.299E-02	1.068E-02	0.000E+00	0.000E+00	7.685E-02	7.366E-02
6.610E-01	3.175E-03	6.294E-02	1.064E-02	0.000E+00	0.000E+00	7.676E-02	7.358E-02
6.620E-01	3.165E-03	6.290E-02	1.060E-02	0.000E+00	0.000E+00	7.667E-02	7.351E-02
6.630E-01	3.156E-03	6.286E-02	1.057E-02	0.000E+00	0.000E+00	7.658E-02	7.343E-02
6.640E-01	3.146E-03	6.282E-02	1.053E-02	0.000E+00	0.000E+00	7.650E-02	7.335E-02
6.650E-01	3.137E-03	6.278E-02	1.049E-02	0.000E+00	0.000E+00	7.641E-02	7.327E-02
6.660E-01	3.128E-03	6.274E-02	1.045E-02	0.000E+00	0.000E+00	7.632E-02	7.319E-02
6.670E-01	3.119E-03	6.270E-02	1.042E-02	0.000E+00	0.000E+00	7.624E-02	7.312E-02
6.680E-01	3.110E-03	6.266E-02	1.038E-02	0.000E+00	0.000E+00	7.615E-02	7.304E-02
6.690E-01	3.100E-03	6.262E-02	1.035E-02	0.000E+00	0.000E+00	7.606E-02	7.296E-02
6.700E-01	3.091E-03	6.258E-02	1.031E-02	0.000E+00	0.000E+00	7.598E-02	7.289E-02
6.710E-01	3.082E-03	6.254E-02	1.027E-02	0.000E+00	0.000E+00	7.589E-02	7.281E-02
6.720E-01	3.073E-03	6.250E-02	1.024E-02	0.000E+00	0.000E+00	7.581E-02	7.273E-02
6.730E-01	3.064E-03	6.246E-02	1.020E-02	0.000E+00	0.000E+00	7.572E-02	7.266E-02
6.740E-01	3.056E-03	6.242E-02	1.017E-02	0.000E+00	0.000E+00	7.564E-02	7.258E-02
6.750E-01	3.047E-03	6.238E-02	1.013E-02	0.000E+00	0.000E+00	7.555E-02	7.251E-02
6.760E-01	3.038E-03	6.234E-02	1.010E-02	0.000E+00	0.000E+00	7.547E-02	7.243E-02
6.770E-01	3.029E-03	6.229E-02	1.006E-02	0.000E+00	0.000E+00	7.539E-02	7.236E-02
6.780E-01	3.020E-03	6.225E-02	1.003E-02	0.000E+00	0.000E+00	7.530E-02	7.228E-02
6.790E-01	3.012E-03	6.222E-02	9.995E-03	0.000E+00	0.000E+00	7.522E-02	7.221E-02
6.800E-01	3.003E-03	6.218E-02	9.961E-03	0.000E+00	0.000E+00	7.514E-02	7.214E-02
6.810E-01	2.994E-03	6.214E-02	9.928E-03	0.000E+00	0.000E+00	7.506E-02	7.206E-02
6.820E-01	2.986E-03	6.210E-02	9.894E-03	0.000E+00	0.000E+00	7.498E-02	7.199E-02
6.830E-01	2.977E-03	6.206E-02	9.860E-03	0.000E+00	0.000E+00	7.489E-02	7.192E-02
6.840E-01	2.968E-03	6.202E-02	9.827E-03	0.000E+00	0.000E+00	7.481E-02	7.184E-02
6.850E-01	2.960E-03	6.198E-02	9.794E-03	0.000E+00	0.000E+00	7.473E-02	7.177E-02
6.860E-01	2.951E-03	6.194E-02	9.761E-03	0.000E+00	0.000E+00	7.465E-02	7.170E-02
6.870E-01	2.943E-03	6.190E-02	9.728E-03	0.000E+00	0.000E+00	7.457E-02	7.163E-02
6.880E-01	2.935E-03	6.186E-02	9.696E-03	0.000E+00	0.000E+00	7.449E-02	7.155E-02
6.890E-01	2.926E-03	6.182E-02	9.664E-03	0.000E+00	0.000E+00	7.441E-02	7.148E-02
6.900E-01	2.918E-03	6.178E-02	9.631E-03	0.000E+00	0.000E+00	7.433E-02	7.141E-02
6.910E-01	2.910E-03	6.174E-02	9.599E-03	0.000E+00	0.000E+00	7.425E-02	7.134E-02
6.920E-01	2.901E-03	6.170E-02	9.567E-03	0.000E+00	0.000E+00	7.417E-02	7.127E-02
6.930E-01	2.893E-03	6.166E-02	9.536E-03	0.000E+00	0.000E+00	7.409E-02	7.120E-02
6.940E-01	2.885E-03	6.162E-02	9.504E-03	0.000E+00	0.000E+00	7.401E-02	7.113E-02
6.950E-01	2.877E-03	6.159E-02	9.473E-03	0.000E+00	0.000E+00	7.394E-02	7.106E-02
6.960E-01	2.869E-03	6.155E-02	9.442E-03	0.000E+00	0.000E+00	7.386E-02	7.099E-02
6.970E-01	2.861E-03	6.151E-02	9.411E-03	0.000E+00	0.000E+00	7.378E-02	7.092E-02
6.980E-01	2.853E-03	6.147E-02	9.380E-03	0.000E+00	0.000E+00	7.370E-02	7.085E-02
6.990E-01	2.845E-03	6.143E-02	9.349E-03	0.000E+00	0.000E+00	7.362E-02	7.078E-02
7.000E-01	2.837E-03	6.139E-02	9.319E-03	0.000E+00	0.000E+00	7.355E-02	7.071E-02
7.010E-01	2.829E-03	6.135E-02	9.288E-03	0.000E+00	0.000E+00	7.347E-02	7.064E-02
7.020E-01	2.821E-03	6.132E-02	9.258E-03	0.000E+00	0.000E+00	7.339E-02	7.057E-02
7.030E-01	2.813E-03	6.128E-02	9.228E-03	0.000E+00	0.000E+00	7.332E-02	7.051E-02
7.040E-01	2.805E-03	6.124E-02	9.198E-03	0.000E+00	0.000E+00	7.324E-02	7.044E-02
7.050E-01	2.797E-03	6.120E-02	9.168E-03	0.000E+00	0.000E+00	7.317E-02	7.037E-02
7.060E-01	2.789E-03	6.116E-02	9.139E-03	0.000E+00	0.000E+00	7.309E-02	7.030E-02
7.070E-01	2.782E-03	6.112E-02	9.110E-03	0.000E+00	0.000E+00	7.302E-02	7.023E-02
7.080E-01	2.774E-03	6.109E-02	9.080E-03	0.000E+00	0.000E+00	7.294E-02	7.017E-02
7.090E-01	2.766E-03	6.105E-02	9.051E-03	0.000E+00	0.000E+00	7.287E-02	7.010E-02
7.100E-01	2.759E-03	6.101E-02	9.022E-03	0.000E+00	0.000E+00	7.279E-02	7.003E-02
7.110E-01	2.751E-03	6.097E-02	8.993E-03	0.000E+00	0.000E+00	7.272E-02	6.997E-02
7.120E-01	2.743E-03	6.093E-02	8.965E-03	0.000E+00	0.000E+00	7.264E-02	6.990E-02
7.130E-01	2.736E-03	6.090E-02	8.936E-03	0.000E+00	0.000E+00	7.257E-02	6.983E-02
7.140E-01	2.728E-03	6.086E-02	8.908E-03	0.000E+00	0.000E+00	7.250E-02	6.977E-02
7.150E-01	2.721E-03	6.082E-02	8.880E-03	0.000E+00	0.000E+00	7.242E-02	6.970E-02
7.160E-01	2.713E-03	6.078E-02	8.852E-03	0.000E+00	0.000E+00	7.235E-02	6.964E-02
7.170E-01	2.706E-03	6.075E-02	8.824E-03	0.000E+00	0.000E+00	7.228E-02	6.957E-02
7.180E-01	2.699E-03	6.071E-02	8.796E-03	0.000E+00	0.000E+00	7.220E-02	6.951E-02
7.190E-01	2.691E-03	6.067E-02	8.768E-03	0.000E+00	0.000E+00	7.213E-02	6.944E-02
7.200E-01	2.684E-03	6.064E-02	8.741E-03	0.000E+00	0.000E+00	7.206E-02	6.938E-02
7.210E-01	2.677E-03	6.060E-02	8.714E-03	0.000E+00	0.000E+00	7.199E-02	6.931E-02
7.220E-01	2.669E-03	6.056E-02	8.686E-03	0.000E+00	0.000E+00	7.192E-02	6.925E-02
7.230E-01	2.662E-03	6.052E-02	8.659E-03	0.000E+00	0.000E+00	7.185E-02	6.918E-02
7.240E-01	2.655E-03	6.049E-02	8.633E-03	0.000E+00	0.000E+00	7.177E-02	6.912E-02
7.250E-01	2.648E-03	6.045E-02	8.606E-03	0.000E+00	0.000E+00	7.170E-02	6.906E-02
7.260E-01	2.640E-03	6.041E-02	8.579E-03	0.000E+00	0.000E+00	7.163E-02	6.899E-02
7.270E-01	2.633E-03	6.038E-02	8.553E-03	0.000E+00	0.000E+00	7.156E-02	6.893E-02
7.280E-01	2.626E-03	6.034E-02	8.526E-03	0.000E+00	0.000E+00	7.149E-02	6.887E-02
7.290E-01	2.619E-03	6.030E-02	8.500E-03	0.000E+00	0.000E+00	7.142E-02	6.880E-02
7.300E-01	2.612E-03	6.027E-02	8.474E-03	0.000E+00	0.000E+00	7.135E-02	6.874E-02
7.310E-01	2.605E-03	6.023E-02	8.448E-03	0.000E+00	0.000E+00	7.128E-02	6.868E-02
7.320E-01	2.598E-03	6.019E-02	8.422E-03	0.000E+00	0.000E+00	7.121E-02	6.861E-02
7.330E-01	2.591E-03	6.016E-02	8.397E-03	0.000E+00	0.000E+00	7.114E-02	6.855E-02
7.340E-01	2.584E-03	6.012E-02	8.371E-03	0.000E+00	0.000E+00	7.107E-02	6.849E-02
7.350E-01	2.577E-03	6.008E-02	8.346E-03	0.000E+00	0.000E+00	7.101E-02	6.843E-02
7.360E-01	2.570E-03	6.005E-02	8.320E-03	0.000E+00	0.000E+00	7.094E-02	6.837E-02
7.370E-01	2.563E-03	6.001E-02	8.295E-03	0.000E+00	0.000E+00	7.087E-02	6.831E-02
7.380E-01	2.557E-03	5.997E-02	8.270E-03	0.000E+00	0.000E+00	7.080E-02	6.824E-02
7.390E-01	2.550E-03	5.994E-02	8.245E-03	0.000E+00	0.000E+00	7.073E-02	6.818E-02
7.400E-01	2.543E-03	5.990E-02	8.220E-03	0.000E+00	0.000E+00	7.067E-02	6.812E-02
7.410E-01	2.536E-03	5.987E-02	8.196E-03	0.000E+00	0.000E+00	7.060E-02	6.806E-02
7.420E-01	2.530E-03	5.983E-02	8.171E-03	0.000E+00	0.000E+00	7.053E-02	6.800E-02
7.430E-01	2.523E-03	5.979E-02	8.147E-03	0.000E+00	0.000E+00	7.046E-02	6.794E-02
7.440E-01	2.516E-03	5.976E-02	8.123E-03	0.000E+00	0.000E+00	7.040E-02	6.788E-02
7.450E-01	2.510E-03	5.972E-02	8.099E-03	0.000E+00	0.000E+00	7.033E-02	6.782E-02
7.460E-01	2.503E-03	5.969E-02	8.074E-03	0.000E+00	0.000E+00	7.026E-02	6.776E-02
7.470E-01	2.496E-03	5.965E-02	8.051E-03	0.000E+00	0.000E+00	7.020E-02	6.770E-02
7.480E-01	2.490E-03	5.962E-02	8.027E-03	0.000E+00	0.000E+00	7.013E-02	6.764E-02
7.490E-01	2.483E-03	5.958E-02	8.003E-03	0.000E+00	0.000E+00	7.007E-02	6.758E-02
7.500E-01	2.477E-03	5.955E-02	7.980E-03	0.000E+00	0.000E+00	7.000E-02	6.752E-02
7.510E-01	2.470E-03	5.951E-02	7.956E-03	0.000E+00	0.000E+00	6.994E-02	6.747E-02
7.520E-01	2.464E-03	5.947E-02	7.933E-03	0.000E+00	0.000E+00	6.987E-02	6.741E-02
7.530E-01	2.457E-03	5.944E-02	7.910E-03	0.000E+00	0.000E+00	6.981E-02	6.735E-02
7.540E-01	2.451E-03	5.940E-02	7.887E-03	0.000E+00	0.000E+00	6.974E-02	6.729E-02
7.550E-01	2.445E-03	5.937E-02	7.864E-03	0.000E+00	0.000E+00	6.968E-02	6.723E-02
7.560E-01	2.438E-03	5.933E-02	7.841E-03	0.000E+00	0.000E+00	6.961E-02	6.717E-02
7.570E-01	2.432E-03	5.930E-02	7.818E-03	0.000E+00	0.000E+00	6.955E-02	6.712E-02
7.580E-01	2.426E-03	5.926E-02	7.795E-03	0.000E+00	0.000E+00	6.948E-02	6.706E-02
7.590E-01	2.419E-03	5.923E-02	7.773E-03	0.000E+00	0.000E+00	6.942E-02	6.700E-02
7.600E-01	2.413E-03	5.919E-02	7.751E-03	0.000E+00	0.000E+00	6.936E-02	6.694E-02
7.610E-01	2.407E-03	5.916E-02	7.728E-03	0.000E+00	0.000E+00	6.929E-02	6.689E-02
7.620E-01	2.401E-03	5.912E-02	7.706E-03	0.000E+00	0.000E+00	6.923E-02	6.683E-02
7.630E-01	2.394E-03	5.909E-02	7.684E-03	0.000E+00	0.000E+00	6.917E-02	6.677E-02
7.640E-01	2.388E-03	5.905E-02	7.662E-03	0.000E+00	0.000E+00	6.910E-02	6.672E-02
7.650E-01	2.382E-03	5.902E-02	7.640E-03	0.000E+00	0.000E+00	6.904E-02	6.666E-02
7.660E-01	2.376E-03	5.898E-02	7.619E-03	0.000E+00	0.000E+00	6.898E-02	6.660E-02
7.670E-01	2.370E-03	5.895E-02	7.597E-03	0.000E+00	0.000E+00	6.892E-02	6.655E-02
7.680E-01	2.364E-03	5.892E-02	7.575E-03	0.000E+00	0.000E+00	6.886E-02	6.649E-02
7.690E-01	2.358E-03	5.888E-02	7.554E-03	0.000E+00	0.000E+00	6.879E-02	6.644E-02
7.700E-01	2.352E-03	5.885E-02	7.533E-03	0.000E+00	0.000E+00	6.873E-02	6.638E-02
7.710E-01	2.346E-03	5.881E-02	7.512E-03	0.000E+00	0.000E+00	6.867E-02	6.632E-02
7.720E-01	2.340E-03	5.878E-02	7.490E-03	0.000E+00	0.000E+00	6.861E-02	6.627E-02
7.730E-01	2.334E-03	5.874E-02	7.469E-03	0.000E+00	0.000E+00	6.855E-02	6.621E-02
7.740E-01	2.328E-03	5.871E-02	7.449E-03	0.000E+00	0.000E+00	6.849E-02	6.616E-02
7.750E-01	2.322E-03	5.868E-02	7.428E-03	0.000E+00	0.000E+00	6.843E-02	6.610E-02
7.760E-01	2.316E-03	5.864E-02	7.407E-03	0.000E+00	0.000E+00	6.837E-02	6.605E-02
7.770E-01	2.310E-03	5.861E-02	7.387E-03	0.000E+00	0.000E+00	6.830E-02	6.599E-02
7.780E-01	2.304E-03	5.857E-02	7.366E-03	0.000E+00	0.000E+00	6.824E-02	6.594E-02
7.790E-01	2.298E-03	5.854E-02	7.346E-03	0.000E+00	0.000E+00	6.818E-02	6.589E-02
7.800E-01	2.293E-03	5.851E-02	7.325E-03	0.000E+00	0.000E+00	6.812E-02	6.583E-02
7.810E-01	2.287E-03	5.847E-02	7.305E-03	0.000E+00	0.000E+00	6.806E-02	6.578E-02
7.820E-01	2.281E-03	5.844E-02	7.285E-03	0.000E+00	0.000E+00	6.801E-02	6.572E-02
7.830E-01	2.275E-03	5.841E-02	7.265E-03	0.000E+00	0.000E+00	6.795E-02	6.567E-02
7.840E-01	2.270E-03	5.837E-02	7.245E-03	0.000E+00	0.000E+00	6.789E-02	6.562E-02
7.850E-01	2.264E-03	5.834E-02	7.226E-03	0.000E+00	0.000E+00	6.783E-02	6.556E-02
7.860E-01	2.258E-03	5.830E-02	7.206E-03	0.000E+00	0.000E+00	6.777E-02	6.551E-02
7.870E-01	2.253E-03	5.827E-02	7.186E-03	0.000E+00	0.000E+00	6.771E-02	6.546E-02
7.880E-01	2.247E-03	5.824E-02	7.167E-03	0.000E+00	0.000E+00	6.765E-02	6.540E-02
7.890E-01	2.241E-03	5.820E-02	7.147E-03	0.000E+00	0.000E+00	6.759E-02	6.535E-02
7.900E-01	2.236E-03	5.817E-02	7.128E-03	0.000E+00	0.000E+00	6.753E-02	6.530E-02
7.910E-01	2.230E-03	5.814E-02	7.109E-03	0.000E+00	0.000E+00	6.748E-02	6.525E-02
7.920E-01	2.225E-03	5.810E-02	7.090E-03	0.000E+00	0.000E+00	6.742E-02	6.519E-02
7.930E-01	2.219E-03	5.807E-02	7.071E-03	0.000E+00	0.000E+00	6.736E-02	6.514E-02
7.940E-01	2.214E-03	5.804E-02	7.052E-03	0.000E+00	0.000E+00	6.730E-02	6.509E-02
7.950E-01	2.208E-03	5.801E-02	7.033E-03	0.000E+00	0.000E+00	6.725E-02	6.504E-02
7.960E-01	2.203E-03	5.797E-02	7.014E-03	0.000E+00	0.000E+00	6.719E-02	6.499E-02
7.970E-01	2.197E-03	5.794E-02	6.995E-03	0.000E+00	0.000E+00	6.713E-02	6.493E-02
7.980E-01	2.192E-03	5.791E-02	6.977E-03	0.000E+00	0.000E+00	6.708E-02	6.488E-02
7.990E-01	2.186E-03	5.787E-02	6.958E-03	0.000E+00	0.000E+00	6.702E-02	6.483E-02
8.000E-01	2.181E-03	5.784E-02	6.940E-03	0.000E+00	0.000E+00	6.696E-02	6.478E-02
8.010E-01	2.176E-03	5.781E-02	6.922E-03	0.000E+00	0.000E+00	6.691E-02	6.473E-02
8.020E-01	2.170E-03	5.778E-02	6.903E-03	0.000E+00	0.000E+00	6.685E-02	6.468E-02
8.030E-01	2.165E-03	5.774E-02	6.885E-03	0.000E+00	0.000E+00	6.679E-02	6.463E-02
8.040E-01	2.160E-03	5.771E-02	6.867E-03	0.000E+00	0.000E+00	6.674E-02	6.458E-02
8.050E-01	2.154E-03	5.768E-02	6.849E-03	0.000E+00	0.000E+00	6.668E-02	6.453E-02
8.060E-01	2.149E-03	5.765E-02	6.831E-03	0.000E+00	0.000E+00	6.663E-02	6.448E-02
8.070E-01	2.144E-03	5.761E-02	6.814E-03	0.000E+00	0.000E+00	6.657E-02	6.443E-02
8.080E-01	2.139E-03	5.758E-02	6.796E-03	0.000E+00	0.000E+00	6.651E-02	6.438E-02
8.090E-01	2.134E-03	5.755E-02	6.778E-03	0.000E+00	0.000E+00	6.646E-02	6.433E-02
8.100E-01	2.128E-03	5.752E-02	6.761E-03	0.000E+00	0.000E+00	6.640E-02	6.428E-02
8.110E-01	2.123E-03	5.748E-02	6.743E-03	0.000E+00	0.000E+00	6.635E-02	6.423E-02
8.120E-01	2.118E-03	5.745E-02	6.726E-03	0.000E+00	0.000E+00	6.630E-02	6.418E-02
8.130E-01	2.113E-03	5.742E-02	6.709E-03	0.000E+00	0.000E+00	6.624E-02	6.413E-02
8.140E-01	2.108E-03	5.739E-02	6.691E-03	0.000E+00	0.000E+00	6.619E-02	6.408E-02
8.150E-01	2.103E-03	5.735E-02	6.674E-03	0.000E+00	0.000E+00	6.613E-02	6.403E-02
8.160E-01	2.098E-03	5.732E-02	6.657E-03	0.000E+00	0.000E+00	6.608E-02	6.398E-02
8.170E-01	2.093E-03	5.729E-02	6.640E-03	0.000E+00	0.000E+00	6.602E-02	6.393E-02
8.180E-01	2.087E-03	5.726E-02	6.623E-03	0.000E+00	0.000E+00	6.597E-02	6.388E-02
8.190E-01	2.082E-03	5.723E-02	6.606E-03	0.000E+00	0.000E+00	6.592E-02	6.383E-02
8.200E-01	2.077E-03	5.720E-02	6.589E-03	0.000E+00	0.000E+00	6.586E-02	6.378E-02
8.210E-01	2.072E-03	5.716E-02	6.573E-03	0.000E+00	0.000E+00	6.581E-02	6.374E-02
8.220E-01	2.068E-03	5.713E-02	6.556E-03	0.000E+00	0.000E+00	6.576E-02	6.369E-02
8.230E-01	2.063E-03	5.710E-02	6.540E-03	0.000E+00	0.000E+00	6.570E-02	6.364E-02
8.240E-01	2.058E-03	5.707E-02	6.523E-03	0.000E+00	0.000E+00	6.565E-02	6.359E-02
8.250E-01	2.053E-03	5.704E-02	6.507E-03	0.000E+00	0.000E+00	6.560E-02	6.354E-02
8.260E-01	2.048E-03	5.701E-02	6.490E-03	0.000E+00	0.000E+00	6.554E-02	6.350E-02
8.270E-01	2.043E-03	5.697E-02	6.474E-03	0.000E+00	0.000E+00	6.549E-02	6.345E-02
8.280E-01	2.038E-03	5.694E-02	6.458E-03	0.000E+00	0.000E+00	6.544E-02	6.340E-02
8.290E-01	2.033E-03	5.691E-02	6.442E-03	0.000E+00	0.000E+00	6.539E-02	6.335E-02
8.300E-01	2.028E-03	5.688E-02	6.426E-03	0.000E+00	0.000E+00	6.533E-02	6.331E-02
8.310E-01	2.024E-03	5.685E-02	6.410E-03	0.000E+00	0.000E+00	6.528E-02	6.326E-02
8.320E-01	2.019E-03	5.682E-02	6.394E-03	0.000E+00	0.000E+00	6.523E-02	6.321E-02
8.330E-01	2.014E-03	5.679E-02	6.378E-03	0.000E+00	0.000E+00	6.518E-02	6.316E-02
8.340E-01	2.009E-03	5.675E-02	6.362E-03	0.000E+00	0.000E+00	6.513E-02	6.312E-02
8.350E-01	2.005E-03	5.672E-02	6.346E-03	0.000E+00	0.000E+00	6.507E-02	6.307E-02
8.360E-01	2.000E-03	5.669E-02	6.331E-03	0.000E+00	0.000E+00	6.502E-02	6.302E-02
8.370E-01	1.995E-03	5.666E-02	6.315E-03	0.000E+00	0.000E+00	6.497E-02	6.298E-02
8.380E-01	1.990E-03	5.663E-02	6.299E-03	0.000E+00	0.000E+00	6.492E-02	6.293E-02
8.390E-01	1.986E-03	5.660E-02	6.284E-03	0.000E+00	0.000E+00	6.487E-02	6.288E-02
8.400E-01	1.981E-03	5.657E-02	6.268E-03	0.000E+00	0.000E+00	6.482E-02	6.284E-02
8.410E-01	1.976E-03	5.654E-02	6.253E-03	0.000E+00	0.000E+00	6.477E-02	6.279E-02
8.420E-01	1.972E-03	5.651E-02	6.238E-03	0.000E+00	0.000E+00	6.472E-02	6.274E-02
8.430E-01	1.967E-03	5.648E-02	6.222E-03	0.000E+00	0.000E+00	6.467E-02	6.270E-02
8.440E-01	1.963E-03	5.645E-02	6.207E-03	0.000E+00	0.000E+00	6.462E-02	6.265E-02
8.450E-01	1.958E-03	5.641E-02	6.192E-03	0.000E+00	0.000E+00	6.457E-02	6.261E-02
8.460E-01	1.953E-03	5.638E-02	6.177E-03	0.000E+00	0.000E+00	6.451E-02	6.256E-02
8.470E-01	1.949E-03	5.635E-02	6.162E-03	0.000E+00	0.000E+00	6.446E-02	6.252E-02
8.480E-01	1.944E-03	5.632E-02	6.147E-03	0.000E+00	0.000E+00	6.441E-02	6.247E-02
8.490E-01	1.940E-03	5.629E-02	6.132E-03	0.000E+00	0.000E+00	6.436E-02	6.242E-02
8.500E-01	1.935E-03	5.626E-02	6.117E-03	0.000E+00	0.000E+00	6.431E-02	6.238E-02
8.510E-01	1.931E-03	5.623E-02	6.103E-03	0.000E+00	0.000E+00	6.427E-02	6.233E-02
8.520E-01	1.926E-03	5.620E-02	6.088E-03	0.000E+00	0.000E+00	6.422E-02	6.229E-02
8.530E-01	1.922E-03	5.617E-02	6.073E-03	0.000E+00	0.000E+00	6.417E-02	6.224E-02
8.540E-01	1.918E-03	5.614E-02	6.059E-03	0.000E+00	0.000E+00	6.412E-02	6.220E-02
8.550E-01	1.913E-03	5.611E-02	6.044E-03	0.000E+00	0.000E+00	6.407E-02	6.215E-02
8.560E-01	1.909E-03	5.608E-02	6.029E-03	0.000E+00	0.000E+00	6.402E-02	6.211E-02
8.570E-01	1.904E-03	5.605E-02	6.015E-03	0.000E+00	0.000E+00	6.397E-02	6.207E-02
8.580E-01	1.900E-03	5.602E-02	6.001E-03	0.000E+00	0.000E+00	6.392E-02	6.202E-02
8.590E-01	1.896E-03	5.599E-02	5.986E-03	0.000E+00	0.000E+00	6.387E-02	6.198E-02
8.600E-01	1.891E-03	5.596E-02	5.972E-03	0.000E+00	0.000E+00	6.382E-02	6.193E-02
8.610E-01	1.887E-03	5.593E-02	5.958E-03	0.000E+00	0.000E+00	6.377E-02	6.189E-02
8.620E-01	1.883E-03	5.590E-02	5.943E-03	0.000E+00	0.000E+00	6.373E-02	6.184E-02
8.630E-01	1.878E-03	5.587E-02	5.929E-03	0.000E+00	0.000E+00	6.368E-02	6.180E-02
8.640E-01	1.874E-03	5.584E-02	5.915E-03	0.000E+00	0.000E+00	6.363E-02	6.176E-02
8.650E-01	1.870E-03	5.581E-02	5.901E-03	0.000E+00	0.000E+00	6.358E-02	6.171E-02
8.660E-01	1.865E-03	5.578E-02	5.887E-03	0.000E+00	0.000E+00	6.353E-02	6.167E-02
8.670E-01	1.861E-03	5.575E-02	5.873E-03	0.000E+00	0.000E+00	6.349E-02	6.162E-02
8.680E-01	1.857E-03	5.572E-02	5.859E-03	0.000E+00	0.000E+00	6.344E-02	6.158E-02
8.690E-01	1.853E-03	5.569E-02	5.845E-03	0.000E+00	0.000E+00	6.339E-02	6.154E-02
8.700E-01	1.849E-03	5.566E-02	5.832E-03	0.000E+00	0.000E+00	6.334E-02	6.149E-02
8.710E-01	1.844E-03	5.563E-02	5.818E-03	0.000E+00	0.000E+00	6.329E-02	6.145E-02
8.720E-01	1.840E-03	5.560E-02	5.804E-03	0.000E+00	0.000E+00	6.325E-02	6.141E-02
8.730E-01	1.836E-03	5.557E-02	5.791E-03	0.000E+00	0.000E+00	6.320E-02	6.136E-02
8.740E-01	1.832E-03	5.554E-02	5.777E-03	0.000E+00	0.000E+00	6.315E-02	6.132E-02
8.750E-01	1.828E-03	5.551E-02	5.763E-03	0.000E+00	0.000E+00	6.311E-02	6.128E-02
8.760E-01	1.824E-03	5.548E-02	5.750E-03	0.000E+00	0.000E+00	6.306E-02	6.123E-02
8.770E-01	1.820E-03	5.546E-02	5.736E-03	0.000E+00	0.000E+00	6.301E-02	6.119E-02
8.780E-01	1.816E-03	5.543E-02	5.723E-03	0.000E+00	0.000E+00	6.296E-02	6.115E-02
8.790E-01	1.811E-03	5.540E-02	5.709E-03	0.000E+00	0.000E+00	6.292E-02	6.111E-02
8.800E-01	1.807E-03	5.537E-02	5.696E-03	0.000E+00	0.000E+00	6.287E-02	6.106E-02
8.810E-01	1.803E-03	5.534E-02	5.683E-03	0.000E+00	0.000E+00	6.282E-02	6.102E-02
8.820E-01	1.799E-03	5.531E-02	5.670E-03	0.000E+00	0.000E+00	6.278E-02	6.098E-02
8.830E-01	1.795E-03	5.528E-02	5.656E-03	0.000E+00	0.000E+00	6.273E-02	6.094E-02
8.840E-01	1.791E-03	5.525E-02	5.643E-03	0.000E+00	0.000E+00	6.269E-02	6.089E-02
8.850E-01	1.787E-03	5.522E-02	5.630E-03	0.000E+00	0.000E+00	6.264E-02	6.085E-02
8.860E-01	1.783E-03	5.519E-02	5.617E-03	0.000E+00	0.000E+00	6.259E-02	6.081E-02
8.870E-01	1.779E-03	5.516E-02	5.604E-03	0.000E+00	0.000E+00	6.255E-02	6.077E-02
8.880E-01	1.775E-03	5.513E-02	5.591E-03	0.000E+00	0.000E+00	6.250E-02	6.073E-02
8.890E-01	1.771E-03	5.511E-02	5.578E-03	0.000E+00	0.000E+00	6.246E-02	6.068E-02
8.900E-01	1.768E-03	5.508E-02	5.565E-03	0.000E+00	0.000E+00	6.241E-02	6.064E-02
8.910E-01	1.764E-03	5.505E-02	5.552E-03	0.000E+00	0.000E+00	6.236E-02	6.060E-02
8.920E-01	1.760E-03	5.502E-02	5.539E-03	0.000E+00	0.000E+00	6.232E-02	6.056E-02
8.930E-01	1.756E-03	5.499E-02	5.526E-03	0.000E+00	0.000E+00	6.227E-02	6.052E-02
8.940E-01	1.752E-03	5.496E-02	5.514E-03	0.000E+00	0.000E+00	6.223E-02	6.048E-02
8.950E-01	1.748E-03	5.493E-02	5.501E-03	0.000E+00	0.000E+00	6.218E-02	6.043E-02
8.960E-01	1.744E-03	5.490E-02	5.488E-03	0.000E+00	0.000E+00	6.214E-02	6.039E-02
8.970E-01	1.740E-03	5.488E-02	5.476E-03	0.000E+00	0.000E+00	6.209E-02	6.035E-02
8.980E-01	1.737E-03	5.485E-02	5.463E-03	0.000E+00	0.000E+00	6.205E-02	6.031E-02
8.990E-01	1.733E-03	5.482E-02	5.450E-03	0.000E+00	0.000E+00	6.200E-02	6.027E-02
9.000E-01	1.729E-03	5.479E-02	5.438E-03	0.000E+00	0.000E+00	6.196E-02	6.023E-02
9.010E-01	1.725E-03	5.476E-02	5.425E-03	0.000E+00	0.000E+00	6.191E-02	6.019E-02
9.020E-01	1.721E-03	5.473E-02	5.413E-03	0.000E+00	0.000E+00	6.187E-02	6.015E-02
9.030E-01	1.718E-03	5.471E-02	5.400E-03	0.000E+00	0.000E+00	6.182E-02	6.011E-02
9.040E-01	1.714E-03	5.468E-02	5.388E-03	0.000E+00	0.000E+00	6.178E-02	6.006E-02
9.050E-01	1.710E-03	5.465E-02	5.376E-03	0.000E+00	0.000E+00	6.173E-02	6.002E-02
9.060E-01	1.706E-03	5.462E-02	5.363E-03	0.000E+00	0.000E+00	6.169E-02	5.998E-02
9.070E-01	1.703E-03	5.459E-02	5.351E-03	0.000E+00	0.000E+00	6.165E-02	5.994E-02
9.080E-01	1.699E-03	5.456E-02	5.339E-03	0.000E+00	0.000E+00	6.160E-02	5.990E-02
9.090E-01	1.695E-03	5.454E-02	5.327E-03	0.000E+00	0.000E+00	6.156E-02	5.986E-02
9.100E-01	1.692E-03	5.451E-02	5.314E-03	0.000E+00	0.000E+00	6.151E-02	5.982E-02
9.110E-01	1.688E-03	5.448E-02	5.302E-03	0.000E+00	0.000E+00	6.147E-02	5.978E-02
9.120E-01	1.684E-03	5.445E-02	5.290E-03	0.000E+00	0.000E+00	6.143E-02	5.974E-02
9.130E-01	1.681E-03	5.442E-02	5.278E-03	0.000E+00	0.000E+00	6.138E-02	5.970E-02
9.140E-01	1.677E-03	5.440E-02	5.266E-03	0.000E+00	0.000E+00	6.134E-02	5.966E-02
9.150E-01	1.673E-03	5.437E-02	5.254E-03	0.000E+00	0.000E+00	6.129E-02	5.962E-02
9.160E-01	1.670E-03	5.434E-02	5.242E-03	0.000E+00	0.000E+00	6.125E-02	5.958E-02
9.170E-01	1.666E-03	5.431E-02	5.230E-03	0.000E+00	0.000E+00	6.121E-02	5.954E-02
9.180E-01	1.663E-03	5.428E-02	5.218E-03	0.000E+00	0.000E+00	6.116E-02	5.950E-02
9.190E-01	1.659E-03	5.426E-02	5.206E-03	0.000E+00	0.000E+00	6.112E-02	5.946E-02
9.200E-01	1.656E-03	5.423E-02	5.195E-03	0.000E+00	0.000E+00	6.108E-02	5.942E-02
9.210E-01	1.652E-03	5.420E-02	5.183E-03	0.000E+00	0.000E+00	6.103E-02	5.938E-02
9.220E-01	1.648E-03	5.417E-02	5.171E-03	0.000E+00	0.000E+00	6.099E-02	5.934E-02
9.230E-01	1.645E-03	5.414E-02	5.159E-03	0.000E+00	0.000E+00	6.095E-02	5.930E-02
9.240E-01	1.641E-03	5.412E-02	5.148E-03	0.000E+00	0.000E+00	6.091E-02	5.926E-02
9.250E-01	1.638E-03	5.409E-02	5.136E-03	0.000E+00	0.000E+00	6.086E-02	5.923E-02
9.260E-01	1.634E-03	5.406E-02	5.124E-03	0.000E+00	0.000E+00	6.082E-02	5.919E-02
9.270E-01	1.631E-03	5.403E-02	5.113E-03	0.000E+00	0.000E+00	6.078E-02	5.915E-02
9.280E-01	1.627E-03	5.401E-02	5.101E-03	0.000E+00	0.000E+00	6.074E-02	5.911E-02
9.290E-01	1.624E-03	5.398E-02	5.089E-03	0.000E+00	0.000E+00	6.069E-02	5.907E-02
9.300E-01	1.621E-03	5.395E-02	5.078E-03	0.000E+00	0.000E+00	6.065E-02	5.903E-02
9.310E-01	1.617E-03	5.392E-02	5.066E-03	0.000E+00	0.000E+00	6.061E-02	5.899E-02
9.320E-01	1.614E-03	5.390E-02	5.055E-03	0.000E+00	0.000E+00	6.057E-02	5.895E-02
9.330E-01	1.610E-03	5.387E-02	5.043E-03	0.000E+00	0.000E+00	6.052E-02	5.891E-02
9.340E-01	1.607E-03	5.384E-02	5.032E-03	0.000E+00	0.000E+00	6.048E-02	5.887E-02
9.350E-01	1.603E-03	5.382E-02	5.021E-03	0.000E+00	0.000E+00	6.044E-02	5.884E-02
9.360E-01	1.600E-03	5.379E-02	5.009E-03	0.000E+00	0.000E+00	6.040E-02	5.880E-02
9.370E-01	1.597E-03	5.376E-02	4.998E-03	0.000E+00	0.000E+00	6.036E-02	5.876E-02
9.380E-01	1.593E-03	5.373E-02	4.987E-03	0.000E+00	0.000E+00	6.031E-02	5.872E-02
9.390E-01	1.590E-03	5.371E-02	4.975E-03	0.000E+00	0.000E+00	6.027E-02	5.868E-02
9.400E-01	1.587E-03	5.368E-02	4.964E-03	0.000E+00	0.000E+00	6.023E-02	5.864E-02
9.410E-01	1.583E-03	5.365E-02	4.953E-03	0.000E+00	0.000E+00	6.019E-02	5.861E-02
9.420E-01	1.580E-03	5.362E-02	4.942E-03	0.000E+00	0.000E+00	6.015E-02	5.857E-02
9.430E-01	1.577E-03	5.360E-02	4.931E-03	0.000E+00	0.000E+00	6.011E-02	5.853E-02
9.440E-01	1.573E-03	5.357E-02	4.920E-03	0.000E+00	0.000E+00	6.006E-02	5.849E-02
9.450E-01	1.570E-03	5.354E-02	4.908E-03	0.000E+00	0.000E+00	6.002E-02	5.845E-02
9.460E-01	1.567E-03	5.352E-02	4.897E-03	0.000E+00	0.000E+00	5.998E-02	5.841E-02
9.470E-01	1.564E-03	5.349E-02	4.886E-03	0.000E+00	0.000E+00	5.994E-02	5.838E-02
9.480E-01	1.560E-03	5.346E-02	4.875E-03	0.000E+00	0.000E+00	5.990E-02	5.834E-02
9.490E-01	1.557E-03	5.344E-02	4.864E-03	0.000E+00	0.000E+00	5.986E-02	5.830E-02
9.500E-01	1.554E-03	5.341E-02	4.853E-03	0.000E+00	0.000E+00	5.982E-02	5.826E-02
9.510E-01	1.551E-03	5.338E-02	4.842E-03	0.000E+00	0.000E+00	5.978E-02	5.823E-02
9.520E-01	1.547E-03	5.336E-02	4.831E-03	0.000E+00	0.000E+00	5.973E-02	5.819E-02
9.530E-01	1.544E-03	5.333E-02	4.821E-03	0.000E+00	0.000E+00	5.969E-02	5.815E-02
9.540E-01	1.541E-03	5.330E-02	4.810E-03	0.000E+00	0.000E+00	5.965E-02	5.811E-02
9.550E-01	1.538E-03	5.328E-02	4.799E-03	0.000E+00	0.000E+00	5.961E-02	5.807E-02
9.560E-01	1.535E-03	5.325E-02	4.788E-03	0.000E+00	0.000E+00	5.957E-02	5.804E-02
9.570E-01	1.531E-03	5.322E-02	4.777E-03	0.000E+00	0.000E+00	5.953E-02	5.800E-02
9.580E-01	1.528E-03	5.320E-02	4.766E-03	0.000E+00	0.000E+00	5.949E-02	5.796E-02
9.590E-01	1.525E-03	5.317E-02	4.756E-03	0.000E+00	0.000E+00	5.945E-02	5.793E-02
9.600E-01	1.522E-03	5.314E-02	4.745E-03	0.000E+00	0.000E+00	5.941E-02	5.789E-02
9.610E-01	1.519E-03	5.312E-02	4.734E-03	0.000E+00	0.000E+00	5.937E-02	5.785E-02
9.620E-01	1.516E-03	5.309E-02	4.724E-03	0.000E+00	0.000E+00	5.933E-02	5.781E-02
9.630E-01	1.513E-03	5.306E-02	4.713E-03	0.000E+00	0.000E+00	5.929E-02	5.778E-02
9.640E-01	1.510E-03	5.304E-02	4.702E-03	0.000E+00	0.000E+00	5.925E-02	5.774E-02
9.650E-01	1.507E-03	5.301E-02	4.692E-03	0.000E+00	0.000E+00	5.921E-02	5.770E-02
9.660E-01	1.503E-03	5.298E-02	4.681E-03	0.000E+00	0.000E+00	5.917E-02	5.767E-02
9.670E-01	1.500E-03	5.296E-02	4.671E-03	0.000E+00	0.000E+00	5.913E-02	5.763E-02
9.680E-01	1.497E-03	5.293E-02	4.660E-03	0.000E+00	0.000E+00	5.909E-02	5.759E-02
9.690E-01	1.494E-03	5.291E-02	4.650E-03	0.000E+00	0.000E+00	5.905E-02	5.756E-02
9.700E-01	1.491E-03	5.288E-02	4.639E-03	0.000E+00	0.000E+00	5.901E-02	5.752E-02
9.710E-01	1.488E-03	5.285E-02	4.629E-03	0.000E+00	0.000E+00	5.897E-02	5.748E-02
9.720E-01	1.485E-03	5.283E-02	4.618E-03	0.000E+00	0.000E+00	5.893E-02	5.745E-02
9.730E-01	1.482E-03	5.280E-02	4.608E-03	0.000E+00	0.000E+00	5.889E-02	5.741E-02
9.740E-01	1.479E-03	5.278E-02	4.598E-03	0.000E+00	0.000E+00	5.885E-02	5.737E-02
9.750E-01	1.476E-03	5.275E-02	4.587E-03	0.000E+00	0.000E+00	5.881E-02	5.734E-02
9.760E-01	1.473E-03	5.272E-02	4.577E-03	0.000E+00	0.000E+00	5.877E-02	5.730E-02
9.770E-01	1.470E-03	5.270E-02	4.567E-03	0.000E+00	0.000E+00	5.873E-02	5.726E-02
9.780E-01	1.467E-03	5.267E-02	4.556E-03	0.000E+00	0.000E+00	5.869E-02	5.723E-02
9.790E-01	1.464E-03	5.265E-02	4.546E-03	0.000E+00	0.000E+00	5.866E-02	5.719E-02
9.800E-01	1.461E-03	5.262E-02	4.536E-03	0.000E+00	0.000E+00	5.862E-02	5.716E-02
9.810E-01	1.458E-03	5.259E-02	4.525E-03	0.000E+00	0.000E+00	5.858E-02	5.712E-02
9.820E-01	1.455E-03	5.257E-02	4.515E-03	0.000E+00	0.000E+00	5.854E-02	5.708E-02
9.830E-01	1.452E-03	5.254E-02	4.505E-03	0.000E+00	0.000E+00	5.850E-02	5.705E-02
9.840E-01	1.450E-03	5.252E-02	4.495E-03	0.000E+00	0.000E+00	5.846E-02	5.701E-02
9.850E-01	1.447E-03	5.249E-02	4.485E-03	0.000E+00	0.000E+00	5.842E-02	5.698E-02
9.860E-01	1.444E-03	5.246E-02	4.475E-03	0.000E+00	0.000E+00	5.838E-02	5.694E-02
9.870E-01	1.441E-03	5.244E-02	4.465E-03	0.000E+00	0.000E+00	5.834E-02	5.690E-02
9.880E-01	1.438E-03	5.241E-02	4.454E-03	0.000E+00	0.000E+00	5.831E-02	5.687E-02
9.890E-01	1.435E-03	5.239E-02	4.444E-03	0.000E+00	0.000E+00	5.827E-02	5.683E-02
9.900E-01	1.432E-03	5.236E-02	4.434E-03	0.000E+00	0.000E+00	5.823E-02	5.680E-02
9.910E-01	1.429E-03	5.234E-02	4.424E-03	0.000E+00	0.000E+00	5.819E-02	5.676E-02
9.920E-01	1.427E-03	5.231E-02	4.414E-03	0.000E+00	0.000E+00	5.815E-02	5.673E-02
9.930E-01	1.424E-03	5.229E-02	4.404E-03	0.000E+00	0.000E+00	5.811E-02	5.669E-02
9.940E-01	1.421E-03	5.226E-02	4.394E-03	0.000E+00	0.000E+00	5.807E-02	5.665E-02
9.950E-01	1.418E-03	5.223E-02	4.384E-03	0.000E+00	0.000E+00	5.804E-02	5.662E-02
9.960E-01	1.415E-03	5.221E-02	4.375E-03	0.000E+00	0.000E+00	5.800E-02	5.658E-02
9.970E-01	1.412E-03	5.218E-02	4.365E-03	0.000E+00	0.000E+00	5.796E-02	5.655E-02
9.980E-01	1.410E-03	5.216E-02	4.355E-03	0.000E+00	0.000E+00	5.792E-02	5.651E-02
9.990E-01	1.407E-03	5.213E-02	4.345E-03	0.000E+00	0.000E+00	5.788E-02	5.648E-02
1.000E+00	1.404E-03	5.211E-02	4.335E-03	0.000E+00	0.000E+00	5.785E-02	5.644E-02
1.001E+00	1.401E-03	5.208E-02	4.325E-03	0.000E+00	0.000E+00	5.781E-02	5.641E-02
1.002E+00	1.399E-03	5.206E-02	4.315E-03	0.000E+00	0.000E+00	5.777E-02	5.637E-02
1.003E+00	1.396E-03	5.203E-02	4.306E-03	0.000E+00	0.000E+00	5.773E-02	5.634E-02
1.004E+00	1.393E-03	5.201E-02	4.296E-03	0.000E+00	0.000E+00	5.769E-02	5.630E-02
1.005E+00	1.390E-03	5.198E-02	4.286E-03	0.000E+00	0.000E+00	5.766E-02	5.627E-02
1.006E+00	1.388E-03	5.196E-02	4.277E-03	0.000E+00	0.000E+00	5.762E-02	5.623E-02
1.007E+00	1.385E-03	5.193E-02	4.267E-03	0.000E+00	0.000E+00	5.758E-02	5.620E-02
1.008E+00	1.382E-03	5.191E-02	4.257E-03	0.000E+00	0.000E+00	5.754E-02	5.616E-02
1.009E+00	1.379E-03	5.188E-02	4.248E-03	0.000E+00	0.000E+00	5.751E-02	5.613E-02
1.010E+00	1.377E-03	5.186E-02	4.238E-03	0.000E+00	0.000E+00	5.747E-02	5.609E-02
1.011E+00	1.374E-03	5.183E-02	4.228E-03	0.000E+00	0.000E+00	5.743E-02	5.606E-02
1.012E+00	1.371E-03	5.181E-02	4.219E-03	0.000E+00	0.000E+00	5.740E-02	5.602E-02
1.013E+00	1.369E-03	5.178E-02	4.209E-03	0.000E+00	0.000E+00	5.736E-02	5.599E-02
1.014E+00	1.366E-03	5.176E-02	4.200E-03	0.000E+00	0.000E+00	5.732E-02	5.596E-02
1.015E+00	1.363E-03	5.173E-02	4.191E-03	0.000E+00	0.000E+00	5.728E-02	5.592E-02
1.016E+00	1.361E-03	5.171E-02	4.181E-03	0.000E+00	0.000E+00	5.725E-02	5.589E-02
1.017E+00	1.358E-03	5.168E-02	4.172E-03	0.000E+00	0.000E+00	5.721E-02	5.585E-02
1.018E+00	1.355E-03	5.166E-02	4.163E-03	0.000E+00	0.000E+00	5.717E-02	5.582E-02
1.019E+00	1.353E-03	5.163E-02	4.153E-03	0.000E+00	0.000E+00	5.714E-02	5.578E-02
1.020E+00	1.350E-03	5.161E-02	4.144E-03	0.000E+00	0.000E+00	5.710E-02	5.575E-02
1.021E+00	1.348E-03	5.158E-02	4.135E-03	0.000E+00	0.000E+00	5.706E-02	5.572E-02
1.022E+00	1.345E-03	5.156E-02	4.126E-03	0.000E+00	0.000E+00	5.703E-02	5.568E-02
1.023E+00	1.342E-03	5.153E-02	4.117E-03	3.676E-11	0.000E+00	5.699E-02	5.565E-02
1.024E+00	1.340E-03	5.151E-02	4.108E-03	2.960E-10	0.000E+00	5.696E-02	5.562E-02
1.025E+00	1.337E-03	5.148E-02	4.099E-03	9.982E-10	0.000E+00	5.692E-02	5.558E-02
1.026E+00	1.335E-03	5.146E-02	4.090E-03	2.360E-09	0.000E+00	5.688E-02	5.555E-02
1.027E+00	1.332E-03	5.143E-02	4.081E-03	4.595E-09	0.000E+00	5.685E-02	5.552E-02
1.028E+00	1.329E-03	5.141E-02	4.072E-03	7.913E-09	0.000E+00	5.681E-02	5.548E-02
1.029E+00	1.327E-03	5.139E-02	4.064E-03	1.252E-08	0.000E+00	5.678E-02	5.545E-02
1.030E+00	1.324E-03	5.136E-02	4.055E-03	1.862E-08	0.000E+00	5.674E-02	5.542E-02
1.031E+00	1.322E-03	5.134E-02	4.046E-03	2.641E-08	0.000E+00	5.670E-02	5.538E-02
1.032E+00	1.319E-03	5.131E-02	4.037E-03	3.608E-08	0.000E+00	5.667E-02	5.535E-02
1.033E+00	1.317E-03	5.129E-02	4.029E-03	4.783E-08	0.000E+00	5.663E-02	5.532E-02
1.034E+00	1.314E-03	5.126E-02	4.020E-03	6.185E-08	0.000E+00	5.660E-02	5.528E-02
1.035E+00	1.312E-03	5.124E-02	4.012E-03	7.832E-08	0.000E+00	5.656E-02	5.525E-02
1.036E+00	1.309E-03	5.121E-02	4.003E-03	9.743E-08	0.000E+00	5.653E-02	5.522E-02
1.037E+00	1.307E-03	5.119E-02	3.995E-03	1.193E-07	0.000E+00	5.649E-02	5.519E-02
1.038E+00	1.304E-03	5.117E-02	3.986E-03	1.443E-07	0.000E+00	5.646E-02	5.515E-02
1.039E+00	1.302E-03	5.114E-02	3.978E-03	1.723E-07	0.000E+00	5.642E-02	5.512E-02
1.040E+00	1.299E-03	5.112E-02	3.970E-03	2.037E-07	0.000E+00	5.639E-02	5.509E-02
1.041E+00	1.297E-03	5.109E-02	3.961E-03	2.386E-07	0.000E+00	5.635E-02	5.506E-02
1.042E+00	1.294E-03	5.107E-02	3.953E-03	2.772E-07	0.000E+00	5.632E-02	5.502E-02
1.043E+00	1.292E-03	5.105E-02	3.945E-03	3.196E-07	0.000E+00	5.628E-02	5.499E-02
1.044E+00	1.289E-03	5.102E-02	3.937E-03	3.660E-07	0.000E+00	5.625E-02	5.496E-02
1.045E+00	1.287E-03	5.100E-02	3.929E-03	4.165E-07	0.000E+00	5.621E-02	5.493E-02
1.046E+00	1.285E-03	5.097E-02	3.921E-03	4.713E-07	0.000E+00	5.618E-02	5.490E-02
1.047E+00	1.282E-03	5.095E-02	3.913E-03	5.305E-07	0.000E+00	5.615E-02	5.486E-02
1.048E+00	1.280E-03	5.093E-02	3.905E-03	5.943E-07	0.000E+00	5.611E-02	5.483E-02
1.049E+00	1.277E-03	5.090E-02	3.897E-03	6.629E-07	0.000E+00	5.608E-02	5.480E-02
1.050E+00	1.275E-03	5.088E-02	3.889E-03	7.363E-07	0.000E+00	5.604E-02	5.477E-02
1.051E+00	1.272E-03	5.086E-02	3.881E-03	8.147E-07	0.000E+00	5.601E-02	5.474E-02
1.052E+00	1.270E-03	5.083E-02	3.873E-03	8.982E-07	0.000E+00	5.598E-02	5.471E-02
1.053E+00	1.268E-03	5.081E-02	3.865E-03	9.871E-07	0.000E+00	5.594E-02	5.467E-02
1.054E+00	1.265E-03	5.078E-02	3.857E-03	1.081E-06	0.000E+00	5.591E-02	5.464E-02
1.055E+00	1.263E-03	5.076E-02	3.850E-03	1.181E-06	0.000E+00	5.587E-02	5.461E-02
1.056E+00	1.261E-03	5.074E-02	3.842E-03	1.287E-06	0.000E+00	5.584E-02	5.458E-02
1.057E+00	1.258E-03	5.071E-02	3.834E-03	1.398E-06	0.000E+00	5.581E-02	5.455E-02
1.058E+00	1.256E-03	5.069E-02	3.827E-03	1.515E-06	0.000E+00	5.577E-02	5.452E-02
1.059E+00	1.253E-03	5.067E-02	3.819E-03	1.638E-06	0.000E+00	5.574E-02	5.449E-02
1.060E+00	1.251E-03	5.064E-02	3.812E-03	1.767E-06	0.000E+00	5.571E-02	5.446E-02
1.061E+00	1.249E-03	5.062E-02	3.804E-03	1.903E-06	0.000E+00	5.567E-02	5.443E-02
1.062E+00	1.246E-03	5.060E-02	3.796E-03	2.045E-06	0.000E+00	5.564E-02	5.439E-02
1.063E+00	1.244E-03	5.057E-02	3.789E-03	2.193E-06	0.000E+00	5.561E-02	5.436E-02
1.064E+00	1.242E-03	5.055E-02	3.782E-03	2.348E-06	0.000E+00	5.558E-02	5.433E-02
1.065E+00	1.240E-03	5.053E-02	3.774E-03	2.510E-06	0.000E+00	5.554E-02	5.430E-02
1.066E+00	1.237E-03	5.050E-02	3.767E-03	2.678E-06	0.000E+00	5.551E-02	5.427E-02
1.067E+00	1.235E-03	5.048E-02	3.760E-03	2.853E-06	0.000E+00	5.548E-02	5.424E-02
1.068E+00	1.233E-03	5.046E-02	3.752E-03	3.036E-06	0.000E+00	5.544E-02	5.421E-02
1.069E+00	1.230E-03	5.043E-02	3.745E-03	3.225E-06	0.000E+00	5.541E-02	5.418E-02
1.070E+00	1.228E-03	5.041E-02	3.738E-03	3.422E-06	0.000E+00	5.538E-02	5.415E-02
1.071E+00	1.226E-03	5.039E-02	3.731E-03	3.626E-06	0.000E+00	5.535E-02	5.412E-02
1.072E+00	1.224E-03	5.036E-02	3.723E-03	3.837E-06	0.000E+00	5.531E-02	5.409E-02
1.073E+00	1.221E-03	5.034E-02	3.716E-03	4.055E-06	0.000E+00	5.528E-02	5.406E-02
1.074E+00	1.219E-03	5.032E-02	3.709E-03	4.282E-06	0.000E+00	5.525E-02	5.403E-02
1.075E+00	1.217E-03	5.029E-02	3.702E-03	4.515E-06	0.000E+00	5.522E-02	5.400E-02
1.076E+00	1.215E-03	5.027E-02	3.695E-03	4.757E-06	0.000E+00	5.519E-02	5.397E-02
1.077E+00	1.212E-03	5.025E-02	3.688E-03	5.006E-06	0.000E+00	5.515E-02	5.394E-02
1.078E+00	1.210E-03	5.023E-02	3.681E-03	5.263E-06	0.000E+00	5.512E-02	5.391E-02
1.079E+00	1.208E-03	5.020E-02	3.674E-03	5.528E-06	0.000E+00	5.509E-02	5.388E-02
1.080E+00	1.206E-03	5.018E-02	3.667E-03	5.801E-06	0.000E+00	5.506E-02	5.385E-02
1.081E+00	1.203E-03	5.016E-02	3.660E-03	6.083E-06	0.000E+00	5.503E-02	5.382E-02
1.082E+00	1.201E-03	5.013E-02	3.653E-03	6.372E-06	0.000E+00	5.499E-02	5.379E-02
1.083E+00	1.199E-03	5.011E-02	3.647E-03	6.669E-06	0.000E+00	5.496E-02	5.376E-02
1.084E+00	1.197E-03	5.009E-02	3.640E-03	6.975E-06	0.000E+00	5.493E-02	5.373E-02
1.085E+00	1.195E-03	5.007E-02	3.633E-03	7.290E-06	0.000E+00	5.490E-02	5.371E-02
1.086E+00	1.193E-03	5.004E-02	3.626E-03	7.612E-06	0.000E+00	5.487E-02	5.368E-02
1.087E+00	1.190E-03	5.002E-02	3.619E-03	7.943E-06	0.000E+00	5.484E-02	5.365E-02
1.088E+00	1.188E-03	5.000E-02	3.613E-03	8.283E-06	0.000E+00	5.481E-02	5.362E-02
1.089E+00	1.186E-03	4.997E-02	3.606E-03	8.631E-06	0.000E+00	5.478E-02	5.359E-02
1.090E+00	1.184E-03	4.995E-02	3.599E-03	8.988E-06	0.000E+00	5.474E-02	5.356E-02
1.091E+00	1.182E-03	4.993E-02	3.593E-03	9.354E-06	0.000E+00	5.471E-02	5.353E-02
1.092E+00	1.180E-03	4.991E-02	3.586E-03	9.729E-06	0.000E+00	5.468E-02	5.350E-02
1.093E+00	1.177E-03	4.988E-02	3.580E-03	1.011E-05	0.000E+00	5.465E-02	5.347E-02
1.094E+00	1.175E-03	4.986E-02	3.573E-03	1.050E-05	0.000E+00	5.462E-02	5.345E-02
1.095E+00	1.173E-03	4.984E-02	3.567E-03	1.091E-05	0.000E+00	5.459E-02	5.342E-02
1.096E+00	1.171E-03	4.982E-02	3.560E-03	1.132E-05	0.000E+00	5.456E-02	5.339E-02
1.097E+00	1.169E-03	4.979E-02	3.554E-03	1.173E-05	0.000E+00	5.453E-02	5.336E-02
1.098E+00	1.167E-03	4.977E-02	3.547E-03	1.216E-05	0.000E+00	5.450E-02	5.333E-02
1.099E+00	1.165E-03	4.975E-02	3.541E-03	1.260E-05	0.000E+00	5.447E-02	5.330E-02
1.100E+00	1.163E-03	4.973E-02	3.535E-03	1.305E-05	0.000E+00	5.444E-02	5.328E-02
1.101E+00	1.161E-03	4.971E-02	3.528E-03	1.350E-05	0.000E+00	5.441E-02	5.325E-02
1.102E+00	1.158E-03	4.968E-02	3.522E-03	1.397E-05	0.000E+00	5.438E-02	5.322E-02
1.103E+00	1.156E-03	4.966E-02	3.516E-03	1.444E-05	0.000E+00	5.435E-02	5.319E-02
1.104E+00	1.154E-03	4.964E-02	3.509E-03	1.493E-05	0.000E+00	5.432E-02	5.316E-02
1.105E+00	1.152E-03	4.962E-02	3.503E-03	1.542E-05	0.000E+00	5.429E-02	5.313E-02
1.106E+00	1.150E-03	4.959E-02	3.497E-03	1.592E-05	0.000E+00	5.426E-02	5.311E-02
1.107E+00	1.148E-03	4.957E-02	3.491E-03	1.643E-05	0.000E+00	5.423E-02	5.308E-02
1.108E+00	1.146E-03	4.955E-02	3.484E-03	1.696E-05	0.000E+00	5.420E-02	5.305E-02
1.109E+00	1.144E-03	4.953E-02	3.478E-03	1.749E-05	0.000E+00	5.417E-02	5.302E-02
1.110E+00	1.142E-03	4.951E-02	3.472E-03	1.803E-05	0.000E+00	5.414E-02	5.300E-02
1.111E+00	1.140E-03	4.948E-02	3.466E-03	1.858E-05	0.000E+00	5.411E-02	5.297E-02
1.112E+00	1.138E-03	4.946E-02	3.460E-03	1.914E-05	0.000E+00	5.408E-02	5.294E-02
1.113E+00	1.136E-03	4.944E-02	3.454E-03	1.971E-05	0.000E+00	5.405E-02	5.291E-02
1.114E+00	1.134E-03	4.942E-02	3.448E-03	2.029E-05	0.000E+00	5.402E-02	5.289E-02
1.115E+00	1.132E-03	4.940E-02	3.442E-03	2.088E-05	0.000E+00	5.399E-02	5.286E-02
1.116E+00	1.130E-03	4.937E-02	3.436E-03	2.148E-05	0.000E+00	5.396E-02	5.283E-02
1.117E+00	1.128E-03	4.935E-02	3.430E-03	2.208E-05	0.000E+00	5.393E-02	5.280E-02
1.118E+00	1.126E-03	4.933E-02	3.424E-03	2.270E-05	0.000E+00	5.390E-02	5.278E-02
1.119E+00	1.124E-03	4.931E-02	3.418E-03	2.333E-05	0.000E+00	5.387E-02	5.275E-02
1.120E+00	1.122E-03	4.929E-02	3.412E-03	2.397E-05	0.000E+00	5.384E-02	5.272E-02
1.121E+00	1.120E-03	4.926E-02	3.406E-03	2.462E-05	0.000E+00	5.382E-02	5.270E-02
1.122E+00	1.118E-03	4.924E-02	3.400E-03	2.527E-05	0.000E+00	5.379E-02	5.267E-02
1.123E+00	1.116E-03	4.922E-02	3.394E-03	2.594E-05	0.000E+00	5.376E-02	5.264E-02
1.124E+00	1.114E-03	4.920E-02	3.389E-03	2.662E-05	0.000E+00	5.373E-02	5.261E-02
1.125E+00	1.112E-03	4.918E-02	3.383E-03	2.731E-05	0.000E+00	5.370E-02	5.259E-02
1.126E+00	1.110E-03	4.916E-02	3.377E-03	2.800E-05	0.000E+00	5.367E-02	5.256E-02
1.127E+00	1.108E-03	4.913E-02	3.371E-03	2.871E-05	0.000E+00	5.364E-02	5.253E-02
1.128E+00	1.106E-03	4.911E-02	3.366E-03	2.943E-05	0.000E+00	5.361E-02	5.251E-02
1.129E+00	1.104E-03	4.909E-02	3.360E-03	3.016E-05	0.000E+00	5.359E-02	5.248E-02
1.130E+00	1.102E-03	4.907E-02	3.354E-03	3.089E-05	0.000E+00	5.356E-02	5.245E-02
1.131E+00	1.100E-03	4.905E-02	3.349E-03	3.164E-05	0.000E+00	5.353E-02	5.243E-02
1.132E+00	1.098E-03	4.903E-02	3.343E-03	3.240E-05	0.000E+00	5.350E-02	5.240E-02
1.133E+00	1.096E-03	4.901E-02	3.337E-03	3.317E-05	0.000E+00	5.347E-02	5.238E-02
1.134E+00	1.095E-03	4.898E-02	3.332E-03	3.395E-05	0.000E+00	5.344E-02	5.235E-02
1.135E+00	1.093E-03	4.896E-02	3.326E-03	3.473E-05	0.000E+00	5.342E-02	5.232E-02
1.136E+00	1.091E-03	4.894E-02	3.320E-03	3.553E-05	0.000E+00	5.339E-02	5.230E-02
1.137E+00	1.089E-03	4.892E-02	3.315E-03	3.634E-05	0.000E+00	5.336E-02	5.227E-02
1.138E+00	1.087E-03	4.890E-02	3.309E-03	3.716E-05	0.000E+00	5.333E-02	5.224E-02
1.139E+00	1.085E-03	4.888E-02	3.304E-03	3.799E-05	0.000E+00	5.330E-02	5.222E-02
1.140E+00	1.083E-03	4.886E-02	3.298E-03	3.882E-05	0.000E+00	5.328E-02	5.219E-02
1.141E+00	1.081E-03	4.883E-02	3.293E-03	3.967E-05	0.000E+00	5.325E-02	5.217E-02
1.142E+00	1.079E-03	4.881E-02	3.287E-03	4.053E-05	0.000E+00	5.322E-02	5.214E-02
1.143E+00	1.078E-03	4.879E-02	3.282E-03	4.140E-05	0.000E+00	5.319E-02	5.212E-02
1.144E+00	1.076E-03	4.877E-02	3.276E-03	4.228E-05	0.000E+00	5.317E-02	5.209E-02
1.145E+00	1.074E-03	4.875E-02	3.271E-03	4.317E-05	0.000E+00	5.314E-02	5.206E-02
1.146E+00	1.072E-03	4.873E-02	3.266E-03	4.407E-05	0.000E+00	5.311E-02	5.204E-02
1.147E+00	1.070E-03	4.871E-02	3.260E-03	4.498E-05	0.000E+00	5.308E-02	5.201E-02
1.148E+00	1.068E-03	4.869E-02	3.255E-03	4.589E-05	0.000E+00	5.306E-02	5.199E-02
1.149E+00	1.066E-03	4.866E-02	3.250E-03	4.682E-05	0.000E+00	5.303E-02	5.196E-02
1.150E+00	1.065E-03	4.864E-02	3.244E-03	4.776E-05	0.000E+00	5.300E-02	5.194E-02
1.151E+00	1.063E-03	4.862E-02	3.239E-03	4.871E-05	0.000E+00	5.297E-02	5.191E-02
1.152E+00	1.061E-03	4.860E-02	3.234E-03	4.967E-05	0.000E+00	5.295E-02	5.189E-02
1.153E+00	1.059E-03	4.858E-02	3.228E-03	5.064E-05	0.000E+00	5.292E-02	5.186E-02
1.154E+00	1.057E-03	4.856E-02	3.223E-03	5.162E-05	0.000E+00	5.289E-02	5.183E-02
1.155E+00	1.055E-03	4.854E-02	3.218E-03	5.261E-05	0.000E+00	5.286E-02	5.181E-02
1.156E+00	1.054E-03	4.852E-02	3.213E-03	5.362E-05	0.000E+00	5.284E-02	5.178E-02
1.157E+00	1.052E-03	4.850E-02	3.208E-03	5.463E-05	0.000E+00	5.281E-02	5.176E-02
1.158E+00	1.050E-03	4.848E-02	3.202E-03	5.565E-05	0.000E+00	5.278E-02	5.173E-02
1.159E+00	1.048E-03	4.846E-02	3.197E-03	5.668E-05	0.000E+00	5.276E-02	5.171E-02
1.160E+00	1.046E-03	4.843E-02	3.192E-03	5.772E-05	0.000E+00	5.273E-02	5.168E-02
1.161E+00	1.045E-03	4.841E-02	3.187E-03	5.877E-05	0.000E+00	5.270E-02	5.166E-02
1.162E+00	1.043E-03	4.839E-02	3.182E-03	5.983E-05	0.000E+00	5.268E-02	5.163E-02
1.163E+00	1.041E-03	4.837E-02	3.177E-03	6.090E-05	0.000E+00	5.265E-02	5.161E-02
1.164E+00	1.039E-03	4.835E-02	3.172E-03	6.199E-05	0.000E+00	5.262E-02	5.158E-02
1.165E+00	1.038E-03	4.833E-02	3.167E-03	6.308E-05	0.000E+00	5.260E-02	5.156E-02
1.166E+00	1.036E-03	4.831E-02	3.161E-03	6.418E-05	0.000E+00	5.257E-02	5.154E-02
1.167E+00	1.034E-03	4.829E-02	3.156E-03	6.529E-05	0.000E+00	5.255E-02	5.151E-02
1.168E+00	1.032E-03	4.827E-02	3.151E-03	6.641E-05	0.000E+00	5.252E-02	5.149E-02
1.169E+00	1.031E-03	4.825E-02	3.146E-03	6.754E-05	0.000E+00	5.249E-02	5.146E-02
1.170E+00	1.029E-03	4.823E-02	3.141E-03	6.869E-05	0.000E+00	5.247E-02	5.144E-02
1.171E+00	1.027E-03	4.821E-02	3.136E-03	6.984E-05	0.000E+00	5.244E-02	5.141E-02
1.172E+00	1.025E-03	4.819E-02	3.131E-03	7.100E-05	0.000E+00	5.241E-02	5.139E-02
1.173E+00	1.024E-03	4.817E-02	3.127E-03	7.217E-05	0.000E+00	5.239E-02	5.136E-02
1.174E+00	1.022E-03	4.815E-02	3.122E-03	7.336E-05	0.000E+00	5.236E-02	5.134E-02
1.175E+00	1.020E-03	4.812E-02	3.117E-03	7.455E-05	0.000E+00	5.234E-02	5.132E-02
1.176E+00	1.018E-03	4.810E-02	3.112E-03	7.575E-05	0.000E+00	5.231E-02	5.129E-02
1.177E+00	1.017E-03	4.808E-02	3.107E-03	7.696E-05	0.000E+00	5.228E-02	5.127E-02
1.178E+00	1.015E-03	4.806E-02	3.102E-03	7.819E-05	0.000E+00	5.226E-02	5.124E-02
1.179E+00	1.013E-03	4.804E-02	3.097E-03	7.942E-05	0.000E+00	5.223E-02	5.122E-02
1.180E+00	1.012E-03	4.802E-02	3.092E-03	8.066E-05	0.000E+00	5.221E-02	5.120E-02
1.181E+00	1.010E-03	4.800E-02	3.087E-03	8.191E-05	0.000E+00	5.218E-02	5.117E-02
1.182E+00	1.008E-03	4.798E-02	3.083E-03	8.317E-05	0.000E+00	5.216E-02	5.115E-02
1.183E+00	1.006E-03	4.796E-02	3.078E-03	8.445E-05	0.000E+00	5.213E-02	5.112E-02
1.184E+00	1.005E-03	4.794E-02	3.073E-03	8.573E-05	0.000E+00	5.210E-02	5.110E-02
1.185E+00	1.003E-03	4.792E-02	3.068E-03	8.702E-05	0.000E+00	5.208E-02	5.108E-02
1.186E+00	1.001E-03	4.790E-02	3.063E-03	8.832E-05	0.000E+00	5.205E-02	5.105E-02
1.187E+00	9.998E-04	4.788E-02	3.059E-03	8.963E-05	0.000E+00	5.203E-02	5.103E-02
1.188E+00	9.981E-04	4.786E-02	3.054E-03	9.095E-05	0.000E+00	5.200E-02	5.101E-02
1.189E+00	9.964E-04	4.784E-02	3.049E-03	9.229E-05	0.000E+00	5.198E-02	5.098E-02
1.190E+00	9.948E-04	4.782E-02	3.045E-03	9.363E-05	0.000E+00	5.195E-02	5.096E-02
1.191E+00	9.931E-04	4.780E-02	3.040E-03	9.498E-05	0.000E+00	5.193E-02	5.093E-02
1.192E+00	9.915E-04	4.778E-02	3.035E-03	9.634E-05	0.000E+00	5.190E-02	5.091E-02
1.193E+00	9.898E-04	4.776E-02	3.030E-03	9.771E-05	0.000E+00	5.188E-02	5.089E-02
1.194E+00	9.882E-04	4.774E-02	3.026E-03	9.909E-05	0.000E+00	5.185E-02	5.086E-02
1.195E+00	9.865E-04	4.772E-02	3.021E-03	1.005E-04	0.000E+00	5.183E-02	5.084E-02
1.196E+00	9.849E-04	4.770E-02	3.016E-03	1.019E-04	0.000E+00	5.180E-02	5.082E-02
1.197E+00	9.833E-04	4.768E-02	3.012E-03	1.033E-04	0.000E+00	5.178E-02	5.079E-02
1.198E+00	9.816E-04	4.766E-02	3.007E-03	1.047E-04	0.000E+00	5.175E-02	5.077E-02
1.199E+00	9.800E-04	4.764E-02	3.003E-03	1.061E-04	0.000E+00	5.173E-02	5.075E-02
1.200E+00	9.784E-04	4.762E-02	2.998E-03	1.076E-04	0.000E+00	5.170E-02	5.073E-02
