./mod_create_phantom.exe -o cylindre -d 14 14 48 -v 5 5 5 -c 0 0 0 25 120 100 
  --> Creating image (background: 0)
  --> Inserting cylinder at [0;0;0] of radius 25 and length 120 with value 100
      Number of non-background voxels: 1920
