./mod_create_phantom.exe -o cylindre_35_120_v1 -d 70 70 240 -v 1 1 1 -c 0 0 0 35 120 100 
  --> Creating image (background: 0)
  --> Inserting cylinder at [0;0;0] of radius 35 and length 120 with value 100
      Number of non-background voxels: 462240
